%!PS-Adobe-3.0 EPSF-3.0
%%Title: plot_datafile_append_Uniform_vs_UCB_vs_TS.eps
%%Creator: matplotlib version 2.2.2, http://matplotlib.org/
%%CreationDate: Thu Jul 26 15:06:20 2018
%%Orientation: portrait
%%BoundingBox: 75 223 536 568
%%EndComments
%%BeginProlog
/mpldict 9 dict def
mpldict begin
/m { moveto } bind def
/l { lineto } bind def
/r { rlineto } bind def
/c { curveto } bind def
/cl { closepath } bind def
/box {
m
1 index 0 r
0 exch r
neg 0 r
cl
} bind def
/clipbox {
box
clip
newpath
} bind def
%!PS-Adobe-3.0 Resource-Font
%%Title: DejaVu Sans
%%Copyright: Copyright (c) 2003 by Bitstream, Inc. All Rights Reserved. Copyright (c) 2006 by Tavmjong Bah. All Rights Reserved. DejaVu changes are in public domain 
%%Creator: Converted from TrueType to type 3 by PPR
25 dict begin
/_d{bind def}bind def
/_m{moveto}_d
/_l{lineto}_d
/_cl{closepath eofill}_d
/_c{curveto}_d
/_sc{7 -1 roll{setcachedevice}{pop pop pop pop pop pop}ifelse}_d
/_e{exec}_d
/FontName /DejaVuSans def
/PaintType 0 def
/FontMatrix[.001 0 0 .001 0 0]def
/FontBBox[-1021 -463 1793 1232]def
/FontType 3 def
/Encoding [ /space /period /zero /one /two /three /four /five /six /seven /eight /equal /B /C /S /T /U /a /c /e /f /i /l /m /n /o /p /r /s /t /u ] def
/FontInfo 10 dict dup begin
/FamilyName (DejaVu Sans) def
/FullName (DejaVu Sans) def
/Notice (Copyright (c) 2003 by Bitstream, Inc. All Rights Reserved. Copyright (c) 2006 by Tavmjong Bah. All Rights Reserved. DejaVu changes are in public domain ) def
/Weight (Book) def
/Version (Version 2.35) def
/ItalicAngle 0.0 def
/isFixedPitch false def
/UnderlinePosition -130 def
/UnderlineThickness 90 def
end readonly def
/CharStrings 32 dict dup begin
/.notdef 0 def
/space{318 0 0 0 0 0 _sc
}_d
/period{318 0 107 0 210 124 _sc
107 124 _m
210 124 _l
210 0 _l
107 0 _l
107 124 _l
_cl}_d
/zero{636 0 66 -13 570 742 _sc
318 664 _m
267 664 229 639 203 589 _c
177 539 165 464 165 364 _c
165 264 177 189 203 139 _c
229 89 267 64 318 64 _c
369 64 407 89 433 139 _c
458 189 471 264 471 364 _c
471 464 458 539 433 589 _c
407 639 369 664 318 664 _c
318 742 _m
399 742 461 709 505 645 _c
548 580 570 486 570 364 _c
570 241 548 147 505 83 _c
461 19 399 -13 318 -13 _c
236 -13 173 19 130 83 _c
87 147 66 241 66 364 _c
66 486 87 580 130 645 _c
173 709 236 742 318 742 _c
_cl}_d
/one{636 0 110 0 544 729 _sc
124 83 _m
285 83 _l
285 639 _l
110 604 _l
110 694 _l
284 729 _l
383 729 _l
383 83 _l
544 83 _l
544 0 _l
124 0 _l
124 83 _l
_cl}_d
/two{{636 0 73 0 536 742 _sc
192 83 _m
536 83 _l
536 0 _l
73 0 _l
73 83 _l
110 121 161 173 226 239 _c
290 304 331 346 348 365 _c
380 400 402 430 414 455 _c
426 479 433 504 433 528 _c
433 566 419 598 392 622 _c
365 646 330 659 286 659 _c
255 659 222 653 188 643 _c
154 632 117 616 78 594 _c
78 694 _l
118 710 155 722 189 730 _c
223 738 255 742 284 742 _c
}_e{359 742 419 723 464 685 _c
509 647 532 597 532 534 _c
532 504 526 475 515 449 _c
504 422 484 390 454 354 _c
446 344 420 317 376 272 _c
332 227 271 164 192 83 _c
_cl}_e}_d
/three{{636 0 76 -13 556 742 _sc
406 393 _m
453 383 490 362 516 330 _c
542 298 556 258 556 212 _c
556 140 531 84 482 45 _c
432 6 362 -13 271 -13 _c
240 -13 208 -10 176 -4 _c
144 1 110 10 76 22 _c
76 117 _l
103 101 133 89 166 81 _c
198 73 232 69 268 69 _c
330 69 377 81 409 105 _c
441 129 458 165 458 212 _c
458 254 443 288 413 312 _c
383 336 341 349 287 349 _c
}_e{202 349 _l
202 430 _l
291 430 _l
339 430 376 439 402 459 _c
428 478 441 506 441 543 _c
441 580 427 609 401 629 _c
374 649 336 659 287 659 _c
260 659 231 656 200 650 _c
169 644 135 635 98 623 _c
98 711 _l
135 721 170 729 203 734 _c
235 739 266 742 296 742 _c
370 742 429 725 473 691 _c
517 657 539 611 539 553 _c
539 513 527 479 504 451 _c
481 423 448 403 406 393 _c
_cl}_e}_d
/four{636 0 49 0 580 729 _sc
378 643 _m
129 254 _l
378 254 _l
378 643 _l
352 729 _m
476 729 _l
476 254 _l
580 254 _l
580 172 _l
476 172 _l
476 0 _l
378 0 _l
378 172 _l
49 172 _l
49 267 _l
352 729 _l
_cl}_d
/five{{636 0 77 -13 549 729 _sc
108 729 _m
495 729 _l
495 646 _l
198 646 _l
198 467 _l
212 472 227 476 241 478 _c
255 480 270 482 284 482 _c
365 482 429 459 477 415 _c
525 370 549 310 549 234 _c
549 155 524 94 475 51 _c
426 8 357 -13 269 -13 _c
238 -13 207 -10 175 -6 _c
143 -1 111 6 77 17 _c
77 116 _l
106 100 136 88 168 80 _c
199 72 232 69 267 69 _c
}_e{323 69 368 83 401 113 _c
433 143 450 183 450 234 _c
450 284 433 324 401 354 _c
368 384 323 399 267 399 _c
241 399 214 396 188 390 _c
162 384 135 375 108 363 _c
108 729 _l
_cl}_e}_d
/six{{636 0 70 -13 573 742 _sc
330 404 _m
286 404 251 388 225 358 _c
199 328 186 286 186 234 _c
186 181 199 139 225 109 _c
251 79 286 64 330 64 _c
374 64 409 79 435 109 _c
461 139 474 181 474 234 _c
474 286 461 328 435 358 _c
409 388 374 404 330 404 _c
526 713 _m
526 623 _l
501 635 476 644 451 650 _c
425 656 400 659 376 659 _c
310 659 260 637 226 593 _c
}_e{192 549 172 482 168 394 _c
187 422 211 444 240 459 _c
269 474 301 482 336 482 _c
409 482 467 459 509 415 _c
551 371 573 310 573 234 _c
573 159 550 99 506 54 _c
462 9 403 -13 330 -13 _c
246 -13 181 19 137 83 _c
92 147 70 241 70 364 _c
70 479 97 571 152 639 _c
206 707 280 742 372 742 _c
396 742 421 739 447 735 _c
472 730 498 723 526 713 _c
_cl}_e}_d
/seven{636 0 82 0 551 729 _sc
82 729 _m
551 729 _l
551 687 _l
286 0 _l
183 0 _l
432 646 _l
82 646 _l
82 729 _l
_cl}_d
/eight{{636 0 68 -13 568 742 _sc
318 346 _m
271 346 234 333 207 308 _c
180 283 167 249 167 205 _c
167 161 180 126 207 101 _c
234 76 271 64 318 64 _c
364 64 401 76 428 102 _c
455 127 469 161 469 205 _c
469 249 455 283 429 308 _c
402 333 365 346 318 346 _c
219 388 _m
177 398 144 418 120 447 _c
96 476 85 511 85 553 _c
85 611 105 657 147 691 _c
188 725 245 742 318 742 _c
}_e{390 742 447 725 489 691 _c
530 657 551 611 551 553 _c
551 511 539 476 515 447 _c
491 418 459 398 417 388 _c
464 377 501 355 528 323 _c
554 291 568 251 568 205 _c
568 134 546 80 503 43 _c
459 5 398 -13 318 -13 _c
237 -13 175 5 132 43 _c
89 80 68 134 68 205 _c
68 251 81 291 108 323 _c
134 355 171 377 219 388 _c
183 544 _m
183 506 194 476 218 455 _c
}_e{242 434 275 424 318 424 _c
360 424 393 434 417 455 _c
441 476 453 506 453 544 _c
453 582 441 611 417 632 _c
393 653 360 664 318 664 _c
275 664 242 653 218 632 _c
194 611 183 582 183 544 _c
_cl}_e}_d
/equal{838 0 106 172 732 454 _sc
106 454 _m
732 454 _l
732 372 _l
106 372 _l
106 454 _l
106 255 _m
732 255 _l
732 172 _l
106 172 _l
106 255 _l
_cl}_d
/B{{686 0 98 0 615 729 _sc
197 348 _m
197 81 _l
355 81 _l
408 81 447 92 473 114 _c
498 136 511 169 511 215 _c
511 260 498 293 473 315 _c
447 337 408 348 355 348 _c
197 348 _l
197 648 _m
197 428 _l
343 428 _l
391 428 426 437 450 455 _c
474 473 486 500 486 538 _c
486 574 474 602 450 620 _c
426 638 391 648 343 648 _c
197 648 _l
98 729 _m
350 729 _l
}_e{425 729 483 713 524 682 _c
564 650 585 606 585 549 _c
585 504 574 468 553 442 _c
532 416 502 399 462 393 _c
510 382 548 360 575 327 _c
601 294 615 253 615 204 _c
615 138 592 88 548 53 _c
504 17 441 0 360 0 _c
98 0 _l
98 729 _l
_cl}_e}_d
/C{{698 0 56 -13 644 742 _sc
644 673 _m
644 569 _l
610 599 575 622 537 638 _c
499 653 460 661 418 661 _c
334 661 270 635 226 584 _c
182 533 160 460 160 364 _c
160 268 182 194 226 143 _c
270 92 334 67 418 67 _c
460 67 499 74 537 90 _c
575 105 610 128 644 159 _c
644 56 _l
609 32 572 15 534 4 _c
496 -7 455 -13 412 -13 _c
302 -13 215 20 151 87 _c
}_e{87 154 56 246 56 364 _c
56 481 87 573 151 641 _c
215 708 302 742 412 742 _c
456 742 497 736 535 725 _c
573 713 610 696 644 673 _c
_cl}_e}_d
/S{{635 0 66 -13 579 742 _sc
535 705 _m
535 609 _l
497 627 462 640 429 649 _c
395 657 363 662 333 662 _c
279 662 237 651 208 631 _c
179 610 165 580 165 542 _c
165 510 174 485 194 469 _c
213 452 250 439 304 429 _c
364 417 _l
437 403 491 378 526 343 _c
561 307 579 260 579 201 _c
579 130 555 77 508 41 _c
460 5 391 -13 300 -13 _c
265 -13 228 -9 189 -2 _c
}_e{150 5 110 16 69 32 _c
69 134 _l
109 111 148 94 186 83 _c
224 71 262 66 300 66 _c
356 66 399 77 430 99 _c
460 121 476 152 476 194 _c
476 230 465 258 443 278 _c
421 298 385 313 335 323 _c
275 335 _l
201 349 148 372 115 404 _c
82 435 66 478 66 534 _c
66 598 88 649 134 686 _c
179 723 242 742 322 742 _c
356 742 390 739 426 733 _c
461 727 497 717 535 705 _c
}_e{_cl}_e}_d
/T{611 0 -2 0 614 729 _sc
-2 729 _m
614 729 _l
614 646 _l
355 646 _l
355 0 _l
256 0 _l
256 646 _l
-2 646 _l
-2 729 _l
_cl}_d
/U{732 0 87 -13 645 729 _sc
87 729 _m
186 729 _l
186 286 _l
186 208 200 151 228 117 _c
256 83 302 66 366 66 _c
429 66 475 83 503 117 _c
531 151 546 208 546 286 _c
546 729 _l
645 729 _l
645 274 _l
645 178 621 107 574 59 _c
527 11 458 -13 366 -13 _c
274 -13 204 11 157 59 _c
110 107 87 178 87 274 _c
87 729 _l
_cl}_d
/a{{613 0 60 -13 522 560 _sc
343 275 _m
270 275 220 266 192 250 _c
164 233 150 205 150 165 _c
150 133 160 107 181 89 _c
202 70 231 61 267 61 _c
317 61 357 78 387 114 _c
417 149 432 196 432 255 _c
432 275 _l
343 275 _l
522 312 _m
522 0 _l
432 0 _l
432 83 _l
411 49 385 25 355 10 _c
325 -5 287 -13 243 -13 _c
187 -13 142 2 109 33 _c
76 64 60 106 60 159 _c
}_e{60 220 80 266 122 298 _c
163 329 224 345 306 345 _c
432 345 _l
432 354 _l
432 395 418 427 391 450 _c
364 472 326 484 277 484 _c
245 484 215 480 185 472 _c
155 464 127 453 100 439 _c
100 522 _l
132 534 164 544 195 550 _c
226 556 256 560 286 560 _c
365 560 424 539 463 498 _c
502 457 522 395 522 312 _c
_cl}_e}_d
/c{{550 0 55 -13 488 560 _sc
488 526 _m
488 442 _l
462 456 437 466 411 473 _c
385 480 360 484 334 484 _c
276 484 230 465 198 428 _c
166 391 150 339 150 273 _c
150 206 166 154 198 117 _c
230 80 276 62 334 62 _c
360 62 385 65 411 72 _c
437 79 462 90 488 104 _c
488 21 _l
462 9 436 0 410 -5 _c
383 -10 354 -13 324 -13 _c
242 -13 176 12 128 64 _c
}_e{79 115 55 185 55 273 _c
55 362 79 432 128 483 _c
177 534 244 560 330 560 _c
358 560 385 557 411 551 _c
437 545 463 537 488 526 _c
_cl}_e}_d
/e{{615 0 55 -13 562 560 _sc
562 296 _m
562 252 _l
149 252 _l
153 190 171 142 205 110 _c
238 78 284 62 344 62 _c
378 62 412 66 444 74 _c
476 82 509 95 541 113 _c
541 28 _l
509 14 476 3 442 -3 _c
408 -9 373 -13 339 -13 _c
251 -13 182 12 131 62 _c
80 112 55 181 55 268 _c
55 357 79 428 127 481 _c
175 533 241 560 323 560 _c
397 560 455 536 498 489 _c
}_e{540 441 562 377 562 296 _c
472 322 _m
471 371 457 410 431 440 _c
404 469 368 484 324 484 _c
274 484 234 469 204 441 _c
174 413 156 373 152 322 _c
472 322 _l
_cl}_e}_d
/f{352 0 23 0 371 760 _sc
371 760 _m
371 685 _l
285 685 _l
253 685 230 678 218 665 _c
205 652 199 629 199 595 _c
199 547 _l
347 547 _l
347 477 _l
199 477 _l
199 0 _l
109 0 _l
109 477 _l
23 477 _l
23 547 _l
109 547 _l
109 585 _l
109 645 123 690 151 718 _c
179 746 224 760 286 760 _c
371 760 _l
_cl}_d
/i{278 0 94 0 184 760 _sc
94 547 _m
184 547 _l
184 0 _l
94 0 _l
94 547 _l
94 760 _m
184 760 _l
184 646 _l
94 646 _l
94 760 _l
_cl}_d
/l{278 0 94 0 184 760 _sc
94 760 _m
184 760 _l
184 0 _l
94 0 _l
94 760 _l
_cl}_d
/m{{974 0 91 0 889 560 _sc
520 442 _m
542 482 569 511 600 531 _c
631 550 668 560 711 560 _c
767 560 811 540 842 500 _c
873 460 889 403 889 330 _c
889 0 _l
799 0 _l
799 327 _l
799 379 789 418 771 444 _c
752 469 724 482 686 482 _c
639 482 602 466 575 435 _c
548 404 535 362 535 309 _c
535 0 _l
445 0 _l
445 327 _l
445 379 435 418 417 444 _c
398 469 369 482 331 482 _c
}_e{285 482 248 466 221 435 _c
194 404 181 362 181 309 _c
181 0 _l
91 0 _l
91 547 _l
181 547 _l
181 462 _l
201 495 226 520 255 536 _c
283 552 317 560 357 560 _c
397 560 430 550 458 530 _c
486 510 506 480 520 442 _c
_cl}_e}_d
/n{634 0 91 0 549 560 _sc
549 330 _m
549 0 _l
459 0 _l
459 327 _l
459 379 448 417 428 443 _c
408 469 378 482 338 482 _c
289 482 251 466 223 435 _c
195 404 181 362 181 309 _c
181 0 _l
91 0 _l
91 547 _l
181 547 _l
181 462 _l
202 494 227 519 257 535 _c
286 551 320 560 358 560 _c
420 560 468 540 500 501 _c
532 462 549 405 549 330 _c
_cl}_d
/o{612 0 55 -13 557 560 _sc
306 484 _m
258 484 220 465 192 427 _c
164 389 150 338 150 273 _c
150 207 163 156 191 118 _c
219 80 257 62 306 62 _c
354 62 392 80 420 118 _c
448 156 462 207 462 273 _c
462 337 448 389 420 427 _c
392 465 354 484 306 484 _c
306 560 _m
384 560 445 534 490 484 _c
534 433 557 363 557 273 _c
557 183 534 113 490 63 _c
445 12 384 -13 306 -13 _c
227 -13 165 12 121 63 _c
77 113 55 183 55 273 _c
55 363 77 433 121 484 _c
165 534 227 560 306 560 _c
_cl}_d
/p{{635 0 91 -207 580 560 _sc
181 82 _m
181 -207 _l
91 -207 _l
91 547 _l
181 547 _l
181 464 _l
199 496 223 520 252 536 _c
281 552 316 560 356 560 _c
422 560 476 533 518 481 _c
559 428 580 359 580 273 _c
580 187 559 117 518 65 _c
476 13 422 -13 356 -13 _c
316 -13 281 -5 252 10 _c
223 25 199 49 181 82 _c
487 273 _m
487 339 473 390 446 428 _c
418 466 381 485 334 485 _c
}_e{286 485 249 466 222 428 _c
194 390 181 339 181 273 _c
181 207 194 155 222 117 _c
249 79 286 61 334 61 _c
381 61 418 79 446 117 _c
473 155 487 207 487 273 _c
_cl}_e}_d
/r{411 0 91 0 411 560 _sc
411 463 _m
401 469 390 473 378 476 _c
366 478 353 480 339 480 _c
288 480 249 463 222 430 _c
194 397 181 350 181 288 _c
181 0 _l
91 0 _l
91 547 _l
181 547 _l
181 462 _l
199 495 224 520 254 536 _c
284 552 321 560 365 560 _c
371 560 378 559 386 559 _c
393 558 401 557 411 555 _c
411 463 _l
_cl}_d
/s{{521 0 54 -13 472 560 _sc
443 531 _m
443 446 _l
417 458 391 468 364 475 _c
336 481 308 485 279 485 _c
234 485 200 478 178 464 _c
156 450 145 430 145 403 _c
145 382 153 366 169 354 _c
185 342 217 330 265 320 _c
296 313 _l
360 299 405 279 432 255 _c
458 230 472 195 472 151 _c
472 100 452 60 412 31 _c
372 1 316 -13 246 -13 _c
216 -13 186 -10 154 -5 _c
}_e{122 0 89 8 54 20 _c
54 113 _l
87 95 120 82 152 74 _c
184 65 216 61 248 61 _c
290 61 323 68 346 82 _c
368 96 380 117 380 144 _c
380 168 371 187 355 200 _c
339 213 303 226 247 238 _c
216 245 _l
160 257 119 275 95 299 _c
70 323 58 356 58 399 _c
58 450 76 490 112 518 _c
148 546 200 560 268 560 _c
301 560 332 557 362 552 _c
391 547 418 540 443 531 _c
}_e{_cl}_e}_d
/t{392 0 27 0 368 702 _sc
183 702 _m
183 547 _l
368 547 _l
368 477 _l
183 477 _l
183 180 _l
183 135 189 106 201 94 _c
213 81 238 75 276 75 _c
368 75 _l
368 0 _l
276 0 _l
206 0 158 13 132 39 _c
106 65 93 112 93 180 _c
93 477 _l
27 477 _l
27 547 _l
93 547 _l
93 702 _l
183 702 _l
_cl}_d
/u{634 0 85 -13 543 560 _sc
85 216 _m
85 547 _l
175 547 _l
175 219 _l
175 167 185 129 205 103 _c
225 77 255 64 296 64 _c
344 64 383 79 411 110 _c
439 141 453 183 453 237 _c
453 547 _l
543 547 _l
543 0 _l
453 0 _l
453 84 _l
431 50 405 26 377 10 _c
348 -5 315 -13 277 -13 _c
214 -13 166 6 134 45 _c
101 83 85 140 85 216 _c
311 560 _m
311 560 _l
_cl}_d
end readonly def

/BuildGlyph
 {exch begin
 CharStrings exch
 2 copy known not{pop /.notdef}if
 true 3 1 roll get exec
 end}_d

/BuildChar {
 1 index /Encoding get exch get
 1 index /BuildGlyph get exec
}_d

FontName currentdict end definefont pop
%!PS-Adobe-3.0 Resource-Font
%%Title: DejaVu Sans Oblique
%%Copyright: Copyright (c) 2003 by Bitstream, Inc. All Rights Reserved. Copyright (c) 2006 by Tavmjong Bah. All Rights Reserved. DejaVu changes are in public domain 
%%Creator: Converted from TrueType to type 3 by PPR
25 dict begin
/_d{bind def}bind def
/_m{moveto}_d
/_l{lineto}_d
/_cl{closepath eofill}_d
/_c{curveto}_d
/_sc{7 -1 roll{setcachedevice}{pop pop pop pop pop pop}ifelse}_d
/_e{exec}_d
/FontName /DejaVuSans-Oblique def
/PaintType 0 def
/FontMatrix[.001 0 0 .001 0 0]def
/FontBBox[-1016 -350 1659 1068]def
/FontType 3 def
/Encoding [ /t ] def
/FontInfo 10 dict dup begin
/FamilyName (DejaVu Sans) def
/FullName (DejaVu Sans Oblique) def
/Notice (Copyright (c) 2003 by Bitstream, Inc. All Rights Reserved. Copyright (c) 2006 by Tavmjong Bah. All Rights Reserved. DejaVu changes are in public domain ) def
/Weight (Oblique) def
/Version (Version 2.35) def
/ItalicAngle -11.0 def
/isFixedPitch false def
/UnderlinePosition -130 def
/UnderlineThickness 90 def
end readonly def
/CharStrings 2 dict dup begin
/.notdef 0 def
/t{{392 0 64 0 423 702 _sc
423 547 _m
409 477 _l
230 477 _l
172 180 _l
170 169 168 160 167 152 _c
166 144 166 139 166 135 _c
166 114 172 99 185 89 _c
197 79 217 75 245 75 _c
336 75 _l
321 0 _l
235 0 _l
181 0 141 10 115 31 _c
89 52 76 84 76 126 _c
76 133 76 141 77 150 _c
78 159 80 169 82 180 _c
140 477 _l
64 477 _l
78 547 _l
153 547 _l
183 702 _l
}_e{273 702 _l
243 547 _l
423 547 _l
_cl}_e}_d
end readonly def

/BuildGlyph
 {exch begin
 CharStrings exch
 2 copy known not{pop /.notdef}if
 true 3 1 roll get exec
 end}_d

/BuildChar {
 1 index /Encoding get exch get
 1 index /BuildGlyph get exec
}_d

FontName currentdict end definefont pop
end
%%EndProlog
mpldict begin
75.6 223.2 translate
460.8 345.6 0 0 clipbox
gsave
0 0 m
460.8 0 l
460.8 345.6 l
0 345.6 l
cl
1.000 setgray
fill
grestore
gsave
57.6 38.016 m
414.72 38.016 l
414.72 304.128 l
57.6 304.128 l
cl
1.000 setgray
fill
grestore
0.800 setlinewidth
1 setlinejoin
0 setlinecap
[] 0 setdash
0.000 setgray
gsave
/o {
gsave
newpath
translate
0.8 setlinewidth
1 setlinejoin
0 setlinecap
0 0 m
0 -3.5 l

gsave
0.000 setgray
fill
grestore
stroke
grestore
} bind def
73.8327 38.016 o
grestore
/DejaVuSans findfont
10.000 scalefont
setfont
gsave
70.653040 23.422250 translate
0.000000 rotate
0.000000 0.000000 m /zero glyphshow
grestore
gsave
/o {
gsave
newpath
translate
0.8 setlinewidth
1 setlinejoin
0 setlinecap
0 0 m
0 -3.5 l

gsave
0.000 setgray
fill
grestore
stroke
grestore
} bind def
122.347 38.016 o
grestore
gsave
112.807494 23.422250 translate
0.000000 rotate
0.000000 0.000000 m /five glyphshow
6.362305 0.000000 m /zero glyphshow
12.724609 0.000000 m /zero glyphshow
grestore
gsave
/o {
gsave
newpath
translate
0.8 setlinewidth
1 setlinejoin
0 setlinecap
0 0 m
0 -3.5 l

gsave
0.000 setgray
fill
grestore
stroke
grestore
} bind def
170.86 38.016 o
grestore
gsave
158.141636 23.422250 translate
0.000000 rotate
0.000000 0.000000 m /one glyphshow
6.362305 0.000000 m /zero glyphshow
12.724609 0.000000 m /zero glyphshow
19.086914 0.000000 m /zero glyphshow
grestore
gsave
/o {
gsave
newpath
translate
0.8 setlinewidth
1 setlinejoin
0 setlinecap
0 0 m
0 -3.5 l

gsave
0.000 setgray
fill
grestore
stroke
grestore
} bind def
219.374 38.016 o
grestore
gsave
206.655465 23.422250 translate
0.000000 rotate
0.000000 0.000000 m /one glyphshow
6.362305 0.000000 m /five glyphshow
12.724609 0.000000 m /zero glyphshow
19.086914 0.000000 m /zero glyphshow
grestore
gsave
/o {
gsave
newpath
translate
0.8 setlinewidth
1 setlinejoin
0 setlinecap
0 0 m
0 -3.5 l

gsave
0.000 setgray
fill
grestore
stroke
grestore
} bind def
267.888 38.016 o
grestore
gsave
255.169294 23.422250 translate
0.000000 rotate
0.000000 0.000000 m /two glyphshow
6.362305 0.000000 m /zero glyphshow
12.724609 0.000000 m /zero glyphshow
19.086914 0.000000 m /zero glyphshow
grestore
gsave
/o {
gsave
newpath
translate
0.8 setlinewidth
1 setlinejoin
0 setlinecap
0 0 m
0 -3.5 l

gsave
0.000 setgray
fill
grestore
stroke
grestore
} bind def
316.402 38.016 o
grestore
gsave
303.683124 23.422250 translate
0.000000 rotate
0.000000 0.000000 m /two glyphshow
6.362305 0.000000 m /five glyphshow
12.724609 0.000000 m /zero glyphshow
19.086914 0.000000 m /zero glyphshow
grestore
gsave
/o {
gsave
newpath
translate
0.8 setlinewidth
1 setlinejoin
0 setlinecap
0 0 m
0 -3.5 l

gsave
0.000 setgray
fill
grestore
stroke
grestore
} bind def
364.916 38.016 o
grestore
gsave
352.196953 23.422250 translate
0.000000 rotate
0.000000 0.000000 m /three glyphshow
6.362305 0.000000 m /zero glyphshow
12.724609 0.000000 m /zero glyphshow
19.086914 0.000000 m /zero glyphshow
grestore
gsave
/o {
gsave
newpath
translate
0.8 setlinewidth
1 setlinejoin
0 setlinecap
0 0 m
0 -3.5 l

gsave
0.000 setgray
fill
grestore
stroke
grestore
} bind def
413.43 38.016 o
grestore
gsave
400.710782 23.422250 translate
0.000000 rotate
0.000000 0.000000 m /three glyphshow
6.362305 0.000000 m /five glyphshow
12.724609 0.000000 m /zero glyphshow
19.086914 0.000000 m /zero glyphshow
grestore
gsave
141.160000 9.344125 translate
0.000000 rotate
/DejaVuSans findfont
10.0 scalefont
setfont
0.000000 0.406250 moveto
/T glyphshow

6.108398 0.406250 moveto
/i glyphshow

8.886719 0.406250 moveto
/m glyphshow

18.627930 0.406250 moveto
/e glyphshow

24.780273 0.406250 moveto
/space glyphshow

27.958984 0.406250 moveto
/s glyphshow

33.168945 0.406250 moveto
/t glyphshow

37.089844 0.406250 moveto
/e glyphshow

43.242188 0.406250 moveto
/p glyphshow

49.589844 0.406250 moveto
/s glyphshow

54.799805 0.406250 moveto
/space glyphshow

/DejaVuSans-Oblique findfont
10.0 scalefont
setfont
57.978516 0.406250 moveto
/t glyphshow

/DejaVuSans findfont
10.0 scalefont
setfont
63.847656 0.406250 moveto
/equal glyphshow

74.174805 0.406250 moveto
/one glyphshow

80.537109 0.406250 moveto
/period glyphshow

85.664062 0.406250 moveto
/period glyphshow

90.791016 0.406250 moveto
/period glyphshow

95.917969 0.406250 moveto
/three glyphshow

102.280273 0.406250 moveto
/three glyphshow

108.642578 0.406250 moveto
/four glyphshow

115.004883 0.406250 moveto
/seven glyphshow

121.367188 0.406250 moveto
/period glyphshow

124.545898 0.406250 moveto
/space glyphshow

127.724609 0.406250 moveto
/one glyphshow

134.086914 0.406250 moveto
/space glyphshow

137.265625 0.406250 moveto
/r glyphshow

141.376953 0.406250 moveto
/e glyphshow

147.529297 0.406250 moveto
/p glyphshow

153.876953 0.406250 moveto
/e glyphshow

160.029297 0.406250 moveto
/t glyphshow

163.950195 0.406250 moveto
/i glyphshow

166.728516 0.406250 moveto
/t glyphshow

170.649414 0.406250 moveto
/i glyphshow

173.427734 0.406250 moveto
/o glyphshow

179.545898 0.406250 moveto
/n glyphshow

185.883789 0.406250 moveto
/period glyphshow


grestore
gsave
/o {
gsave
newpath
translate
0.8 setlinewidth
1 setlinejoin
0 setlinecap
0 0 m
-3.5 0 l

gsave
0.000 setgray
fill
grestore
stroke
grestore
} bind def
57.6 38.016 o
grestore
gsave
34.693750 34.219125 translate
0.000000 rotate
0.000000 0.000000 m /zero glyphshow
6.362305 0.000000 m /period glyphshow
9.541016 0.000000 m /zero glyphshow
grestore
gsave
/o {
gsave
newpath
translate
0.8 setlinewidth
1 setlinejoin
0 setlinecap
0 0 m
-3.5 0 l

gsave
0.000 setgray
fill
grestore
stroke
grestore
} bind def
57.6 91.2384 o
grestore
gsave
34.693750 87.441525 translate
0.000000 rotate
0.000000 0.000000 m /zero glyphshow
6.362305 0.000000 m /period glyphshow
9.541016 0.000000 m /two glyphshow
grestore
gsave
/o {
gsave
newpath
translate
0.8 setlinewidth
1 setlinejoin
0 setlinecap
0 0 m
-3.5 0 l

gsave
0.000 setgray
fill
grestore
stroke
grestore
} bind def
57.6 144.461 o
grestore
gsave
34.693750 140.663925 translate
0.000000 rotate
0.000000 0.000000 m /zero glyphshow
6.362305 0.000000 m /period glyphshow
9.541016 0.000000 m /four glyphshow
grestore
gsave
/o {
gsave
newpath
translate
0.8 setlinewidth
1 setlinejoin
0 setlinecap
0 0 m
-3.5 0 l

gsave
0.000 setgray
fill
grestore
stroke
grestore
} bind def
57.6 197.683 o
grestore
gsave
34.693750 193.886325 translate
0.000000 rotate
0.000000 0.000000 m /zero glyphshow
6.362305 0.000000 m /period glyphshow
9.541016 0.000000 m /six glyphshow
grestore
gsave
/o {
gsave
newpath
translate
0.8 setlinewidth
1 setlinejoin
0 setlinecap
0 0 m
-3.5 0 l

gsave
0.000 setgray
fill
grestore
stroke
grestore
} bind def
57.6 250.906 o
grestore
gsave
34.693750 247.108725 translate
0.000000 rotate
0.000000 0.000000 m /zero glyphshow
6.362305 0.000000 m /period glyphshow
9.541016 0.000000 m /eight glyphshow
grestore
gsave
/o {
gsave
newpath
translate
0.8 setlinewidth
1 setlinejoin
0 setlinecap
0 0 m
-3.5 0 l

gsave
0.000 setgray
fill
grestore
stroke
grestore
} bind def
57.6 304.128 o
grestore
gsave
34.693750 300.331125 translate
0.000000 rotate
0.000000 0.000000 m /one glyphshow
6.362305 0.000000 m /period glyphshow
9.541016 0.000000 m /zero glyphshow
grestore
gsave
28.615625 92.572000 translate
90.000000 rotate
0.000000 0.000000 m /S glyphshow
6.347656 0.000000 m /u glyphshow
12.685547 0.000000 m /c glyphshow
18.183594 0.000000 m /c glyphshow
23.681641 0.000000 m /e glyphshow
29.833984 0.000000 m /s glyphshow
35.043945 0.000000 m /s glyphshow
40.253906 0.000000 m /f glyphshow
43.774414 0.000000 m /u glyphshow
50.112305 0.000000 m /l glyphshow
52.890625 0.000000 m /space glyphshow
56.069336 0.000000 m /c glyphshow
61.567383 0.000000 m /o glyphshow
67.685547 0.000000 m /m glyphshow
77.426758 0.000000 m /m glyphshow
87.167969 0.000000 m /u glyphshow
93.505859 0.000000 m /n glyphshow
99.843750 0.000000 m /i glyphshow
102.622070 0.000000 m /c glyphshow
108.120117 0.000000 m /a glyphshow
114.248047 0.000000 m /t glyphshow
118.168945 0.000000 m /i glyphshow
120.947266 0.000000 m /o glyphshow
127.065430 0.000000 m /n glyphshow
133.403320 0.000000 m /space glyphshow
136.582031 0.000000 m /r glyphshow
140.693359 0.000000 m /a glyphshow
146.821289 0.000000 m /t glyphshow
150.742188 0.000000 m /e glyphshow
grestore
3.000 setlinewidth
2 setlinecap
0.860 0.371 0.340 setrgbcolor
gsave
357.1 266.1 57.6 38.02 clipbox
73.832727 171.072 m
73.929755 144.4608 l
74.220838 204.336 l
74.317866 215.424 l
74.414893 197.6832 l
74.705976 222.247385 l
74.803004 209.088 l
74.997059 220.968 l
75.094087 210.206118 l
75.191114 225.859765 l
75.288142 215.424 l
75.482197 224.2944 l
75.579225 215.424 l
75.676253 219.456 l
76.064363 191.542154 l
76.452474 206.5536 l
76.549502 201.116903 l
76.646529 204.336 l
76.743557 199.296 l
76.937612 210.206118 l
77.422751 222.247385 l
77.616806 213.260488 l
78.296 226.512 l
78.393027 222.665143 l
78.490055 224.2944 l
78.587083 220.641882 l
78.68411 222.247385 l
78.975193 212.1984 l
79.072221 213.84 l
79.169248 210.755368 l
79.460331 215.424 l
79.557359 212.515672 l
79.654387 213.99329 l
79.751414 211.2 l
79.848442 212.652 l
79.94547 209.965292 l
80.139525 215.424 l
80.624663 221.670761 l
80.721691 219.12 l
81.497912 227.6208 l
81.59494 225.28 l
81.788995 229.486829 l
81.886023 230.38612 l
81.983051 228.096 l
82.953327 236.184511 l
83.147382 237.6 l
83.24441 235.542433 l
83.438465 238.957714 l
83.535493 239.616 l
83.632521 237.6 l
83.826576 238.904471 l
83.923604 236.954097 l
84.602797 241.2288 l
84.699825 239.398054 l
84.796853 239.976 l
84.89388 238.188743 l
85.087936 241.101474 l
85.379019 242.717538 l
85.476046 240.98278 l
85.670102 242.0352 l
85.961185 237.059122 l
86.446323 239.679 l
86.543351 238.115721 l
86.737406 240.670523 l
87.125516 242.564776 l
87.222544 241.0496 l
88.095793 244.992 l
88.192821 243.564579 l
88.386876 245.802082 l
88.969042 248.104421 l
89.06607 246.731294 l
89.357153 247.835077 l
89.45418 246.49865 l
89.745263 247.5792 l
89.842291 246.277565 l
90.036346 248.277333 l
91.394733 252.72 l
91.491761 251.506983 l
91.685816 253.297618 l
92.073927 254.414769 l
92.267982 252.062609 l
92.462038 252.622452 l
92.559065 251.474824 l
92.850148 252.306189 l
92.947176 251.184251 l
93.044204 251.46 l
93.141231 250.354073 l
93.335287 252.002969 l
93.529342 252.534857 l
93.62637 251.445929 l
93.917453 252.23616 l
94.01448 251.170388 l
94.111508 251.432554 l
94.208536 250.381241 l
94.305563 250.644706 l
94.499619 248.58035 l
94.693674 249.114462 l
94.790702 248.104421 l
94.984757 249.6384 l
95.66395 251.396129 l
95.760978 250.417321 l
95.955033 250.9056 l
96.052061 249.942299 l
96.343144 250.668 l
96.440172 249.72288 l
96.634227 251.141097 l
97.701531 253.600405 l
97.895587 251.796351 l
97.992614 252.0144 l
98.283697 249.372444 l
99.059918 251.117641 l
99.253974 249.433043 l
99.545057 250.074 l
99.642084 249.248872 l
99.83614 250.493023 l
100.903444 252.686275 l
101.000472 251.8912 l
101.194527 252.275294 l
101.291555 251.490462 l
101.48561 252.653781 l
101.582638 251.87328 l
102.067776 252.8064 l
102.164804 252.042021 l
102.552914 252.773053 l
102.74697 251.276488 l
102.843997 251.46 l
102.941025 250.721439 l
103.13508 251.823228 l
104.008329 253.397619 l
104.105357 252.67968 l
104.493467 253.356632 l
104.590495 252.650597 l
104.78455 253.688471 l
104.881578 252.985954 l
106.04591 254.909793 l
106.239965 253.55843 l
106.434021 254.541913 l
107.792408 256.608 l
107.889435 255.959359 l
108.568629 256.939535 l
108.762684 255.674081 l
108.859712 255.813718 l
109.053767 254.565593 l
109.34485 254.988 l
109.441878 254.373348 l
109.635933 255.265627 l
109.732961 255.403268 l
109.829989 254.792629 l
110.60621 255.876923 l
110.703238 255.280044 l
110.99432 255.678261 l
111.091348 255.08839 l
111.285403 255.940151 l
111.382431 255.352755 l
111.576486 255.614284 l
111.673514 255.032471 l
112.643791 256.311 l
112.740818 255.744 l
113.225957 256.364308 l
113.322984 255.805872 l
114.196233 256.89312 l
114.390289 255.804179 l
114.584344 256.043406 l
114.681372 255.505067 l
114.778399 255.624828 l
114.875427 255.090162 l
115.360565 255.685282 l
115.457593 255.158237 l
115.748676 255.511385 l
115.845703 254.989813 l
116.039759 255.744 l
116.330842 256.088779 l
116.524897 255.057702 l
116.81598 255.403268 l
116.913008 254.894164 l
117.398146 255.464 l
117.495174 254.961811 l
117.689229 255.688258 l
118.07734 256.13063 l
118.174367 255.633786 l
118.368423 255.853714 l
118.46545 255.360869 l
118.562478 255.470953 l
118.659506 254.981189 l
119.047616 255.42 l
119.144644 254.935804 l
119.338699 255.63648 l
120.211948 256.587294 l
120.308976 256.112139 l
120.503031 256.32 l
120.600059 255.848501 l
120.697086 255.952552 l
120.794114 255.483871 l
120.988169 256.159313 l
121.085197 255.692197 l
122.249529 256.90562 l
122.443584 255.995476 l
122.63764 256.647436 l
122.734667 256.194783 l
123.316833 256.78292 l
123.510888 255.891813 l
123.996027 256.378065 l
124.093054 255.938704 l
124.28711 256.569831 l
125.160359 257.414059 l
125.354414 256.551984 l
125.645497 256.83075 l
125.742525 256.404211 l
126.809829 257.406046 l
126.906856 256.98816 l
127.197939 257.256 l
127.294967 256.841558 l
127.489022 257.432875 l
128.653354 258.466716 l
128.750382 258.060729 l
128.84741 258.145412 l
128.944437 257.741505 l
129.138493 258.313846 l
129.23552 257.911108 l
130.49688 258.984 l
130.593908 258.590118 l
131.079046 258.992396 l
131.176073 258.602667 l
131.564184 258.921583 l
131.661212 258.535385 l
132.049322 258.852 l
132.14635 258.469269 l
132.340405 259.008664 l
133.698793 260.075676 l
133.79582 259.701207 l
133.989876 260.224 l
134.086903 259.850541 l
135.348263 260.797263 l
135.44529 260.431448 l
135.639346 260.939331 l
136.124484 261.290459 l
136.221512 260.928 l
136.70665 261.275826 l
136.803678 260.916887 l
136.997733 261.055385 l
137.094761 260.698522 l
137.288816 261.192997 l
138.453148 262.000552 l
138.550176 261.650028 l
138.647203 261.7164 l
138.744231 261.367413 l
138.938286 261.848523 l
139.326397 262.110316 l
139.423424 261.763957 l
139.520452 261.829333 l
139.908563 262.088834 l
140.00559 261.745691 l
140.102618 261.810495 l
140.199646 261.875102 l
140.490729 260.854468 l
140.587756 260.920134 l
140.684784 260.5824 l
140.878839 260.713958 l
140.975867 260.378063 l
141.461005 260.705533 l
141.558033 260.372664 l
141.849116 260.568 l
141.946144 260.237314 l
142.140199 260.697258 l
142.722365 261.080471 l
142.819392 260.752916 l
142.91642 260.816516 l
143.110475 260.165053 l
143.498586 260.420651 l
143.595614 260.097858 l
143.789669 260.547339 l
143.886697 260.225297 l
145.148056 261.036 l
145.245084 260.71966 l
145.342112 261.097123 l
145.439139 260.781144 l
145.536167 260.842455 l
145.633195 260.903593 l
145.82725 260.275741 l
146.021305 260.398921 l
146.118333 260.087024 l
146.215361 260.148706 l
146.797526 260.5152 l
146.894554 260.206602 l
147.088609 260.636011 l
147.185637 260.3281 l
147.282665 260.388597 l
147.573748 260.569089 l
147.670775 260.263385 l
147.767803 260.323556 l
148.252941 260.621951 l
148.544024 260.076896 l
148.73808 260.497171 l
148.835107 260.196114 l
148.932135 260.255481 l
149.12619 260.373736 l
149.223218 260.074466 l
149.320246 260.133677 l
149.902412 260.485632 l
150.193495 259.952701 l
150.38755 260.364223 l
150.969716 260.709726 l
151.066743 260.417093 l
151.163771 260.474457 l
151.454854 260.645647 l
151.842965 259.833675 l
152.328103 260.119814 l
152.425131 259.833228 l
152.522158 259.890309 l
152.813241 260.060673 l
153.104324 259.549136 l
153.29838 259.662857 l
153.395407 259.380504 l
153.589463 259.776 l
154.171629 260.112 l
154.462712 259.608634 l
154.656767 259.720351 l
154.753794 259.442526 l
154.850822 259.498453 l
154.94785 259.55424 l
155.044877 259.277663 l
155.141905 259.609888 l
155.238933 259.333586 l
155.33596 259.38937 l
155.724071 259.611123 l
155.821099 259.336871 l
155.918126 259.392237 l
156.306237 259.612339 l
156.694348 258.853131 l
156.888403 259.2338 l
157.082458 259.343298 l
157.179486 259.073715 l
157.276514 259.128526 l
157.567597 259.29216 l
157.664624 259.024271 l
157.761652 259.07881 l
157.955707 259.187493 l
158.343818 258.444908 l
158.537873 258.818763 l
159.023011 259.088782 l
159.120039 258.8256 l
159.217067 258.879467 l
159.50815 259.040303 l
159.702205 258.517787 l
159.799233 258.571636 l
159.89626 258.625358 l
159.993288 258.365512 l
160.187343 258.732424 l
160.478426 258.89208 l
160.866537 258.171669 l
161.545731 258.544 l
161.642758 258.289054 l
161.836814 258.649275 l
161.933841 258.394796 l
162.030869 258.447484 l
162.41898 258.657028 l
162.516007 258.404289 l
162.613035 258.456604 l
162.710062 258.5088 l
163.001145 257.755408 l
163.098173 257.808164 l
163.195201 257.8608 l
163.292228 257.61126 l
163.486284 257.965714 l
164.06845 258.277622 l
164.359533 257.834667 l
164.650616 257.990013 l
164.941699 257.254314 l
165.038726 257.550983 l
165.232782 257.062585 l
165.329809 257.11488 l
165.71792 257.322903 l
165.814948 257.080575 l
165.911975 257.132503 l
166.009003 257.184318 l
166.300086 256.754215 l
166.494141 256.858105 l
166.591169 256.61841 l
166.785224 256.96154 l
168.143611 257.673103 l
168.240639 257.436659 l
168.434694 257.773006 l
169.404971 258.266145 l
169.501999 258.032085 l
169.599026 258.081019 l
169.793082 258.178576 l
169.890109 257.9456 l
170.084165 258.275721 l
170.27822 258.372456 l
170.375248 258.140257 l
170.472275 258.188665 l
170.66633 258.285176 l
170.860386 257.823396 l
170.957413 257.871883 l
171.151469 257.968552 l
171.248496 257.738956 l
171.345524 257.787328 l
171.442552 257.8356 l
171.539579 257.60686 l
171.636607 257.655218 l
171.733635 257.703477 l
171.92769 257.248166 l
172.024718 257.296696 l
172.703911 257.633612 l
172.800939 257.408131 l
172.897967 257.456049 l
172.994994 257.503869 l
173.092022 257.279214 l
173.286077 257.599215 l
173.674188 256.975772 l
173.771216 257.02374 l
173.868243 256.801171 l
173.965271 256.849218 l
174.644464 257.182839 l
174.741492 256.962127 l
174.935547 257.277296 l
175.323658 257.465074 l
175.420686 257.245405 l
175.517713 257.292288 l
176.196907 257.617859 l
176.390962 257.182573 l
176.585018 257.492531 l
177.943405 258.130125 l
178.040433 257.91538 l
178.13746 258.175001 l
178.234488 257.960421 l
178.331516 258.005375 l
179.495847 258.538071 l
179.689903 258.114398 l
179.883958 258.413942 l
180.078013 258.246621 l
180.369096 258.378086 l
180.660179 258.00192 l
180.854235 258.089612 l
181.04829 257.924493 l
181.242345 258.012 l
181.339373 257.803868 l
181.436401 258.055629 l
181.921539 257.270237 l
182.794788 257.664 l
182.988843 257.254591 l
183.182898 257.546011 l
183.376954 257.632595 l
183.571009 257.472 l
183.668037 257.51524 l
183.862092 257.355308 l
183.95912 257.398536 l
184.250203 257.037213 l
184.34723 257.080575 l
184.638313 256.721455 l
184.832369 257.009086 l
186.190756 257.606609 l
186.287784 257.407884 l
186.384811 257.64871 l
186.578866 257.492293 l
186.675894 257.534383 l
186.869949 257.378595 l
187.064005 257.462676 l
187.355088 257.110902 l
187.452115 257.153032 l
187.646171 256.999041 l
187.840226 257.0832 l
187.937254 256.887779 l
188.131309 257.167059 l
188.325364 257.013865 l
189.101586 257.346827 l
189.295641 257.194667 l
189.489696 257.277296 l
189.683752 257.125793 l
190.071862 257.290424 l
190.265918 257.139692 l
191.042139 257.466 l
191.139166 257.27567 l
191.333222 257.54687 l
191.527277 257.62746 l
191.721332 257.477969 l
192.303498 257.718433 l
192.594581 257.381676 l
192.691609 257.421699 l
192.788637 257.234012 l
192.982692 257.501538 l
193.273775 257.620788 l
193.564858 257.286857 l
193.758913 257.366384 l
193.952969 257.220122 l
194.049996 257.259841 l
194.438107 256.744344 l
194.632162 257.008675 l
194.72919 257.048371 l
194.923245 256.903751 l
195.990549 257.33664 l
196.087577 257.154025 l
196.281632 257.414496 l
196.669743 257.569433 l
197.057854 257.063564 l
197.348937 257.179964 l
197.542992 257.038222 l
197.64002 257.076947 l
197.737047 256.896947 l
197.931103 257.154207 l
198.416241 257.34625 l
198.610296 257.205394 l
198.998407 257.358112 l
199.192462 257.217924 l
199.28949 257.256 l
199.386517 257.07819 l
199.483545 257.294015 l
199.774628 256.977087 l
200.550849 257.280309 l
200.744905 257.141933 l
200.93896 257.217231 l
201.133015 257.079398 l
201.230043 257.117007 l
201.424098 256.979665 l
201.618154 257.054802 l
201.812209 256.917995 l
201.909237 256.955523 l
202.20032 256.645684 l
202.394375 256.720874 l
202.58843 256.375096 l
202.782485 256.623014 l
203.073568 256.315915 l
203.170596 256.353562 l
203.364651 256.219472 l
203.655734 256.332198 l
203.84979 256.198666 l
204.140873 256.311 l
204.2379 256.14059 l
204.431956 256.385598 l
204.626011 256.459963 l
204.820066 256.327166 l
204.917094 256.364308 l
205.111149 256.231969 l
205.596288 256.417039 l
205.887371 255.91187 l
206.081426 256.154034 l
206.275481 256.023138 l
207.245758 256.390351 l
207.536841 256.094075 l
207.730896 256.333151 l
207.827924 256.369497 l
208.021979 256.239964 l
208.41009 256.384969 l
208.604145 256.256 l
208.895228 256.364308 l
209.186311 256.071657 l
209.380366 256.307874 l
209.574422 256.179892 l
209.768477 256.251778 l
209.962532 256.124263 l
210.350643 256.267558 l
210.544698 256.14059 l
210.738753 256.212 l
210.932809 256.085492 l
211.029836 256.121158 l
211.223892 255.995066 l
212.291196 256.384376 l
212.485251 256.259101 l
212.582279 256.294222 l
212.873362 256.009652 l
213.3585 256.185138 l
213.552556 256.061157 l
213.746611 256.131072 l
213.940666 255.814275 l
214.134722 256.04245 l
214.813915 256.285482 l
215.00797 256.162607 l
215.493109 256.334897 l
215.590136 256.178171 l
215.687164 256.369206 l
215.881219 256.246916 l
216.754468 256.553846 l
216.948524 256.43225 l
217.142579 256.5 l
217.239607 256.344937 l
217.433662 256.567557 l
218.112856 256.802507 l
218.500966 256.373911 l
218.597994 256.407494 l
218.889077 256.134467 l
219.083132 256.354738 l
219.18016 256.388216 l
219.374215 256.268809 l
220.053409 256.502106 l
220.247464 256.383288 l
220.441519 256.4496 l
220.538547 256.298015 l
220.732602 256.515728 l
221.023685 256.614577 l
221.314768 256.345459 l
221.702879 256.477091 l
221.896934 256.359615 l
222.09099 256.425231 l
222.188017 256.275327 l
222.382072 256.490667 l
222.4791 256.523317 l
222.673155 256.406341 l
222.770183 256.438982 l
223.061266 256.173346 l
223.158294 256.206057 l
223.352349 256.090071 l
223.546404 256.155429 l
223.837487 255.891813 l
224.031543 256.105075 l
224.419653 255.694896 l
224.710736 255.793005 l
225.001819 255.532075 l
225.38993 255.66271 l
225.486958 255.51654 l
225.583985 255.695259 l
225.778041 255.581746 l
225.875068 255.614284 l
226.069124 255.501108 l
226.360206 255.598557 l
226.651289 255.3408 l
227.0394 255.470553 l
227.136428 255.326065 l
227.330483 255.535171 l
227.718594 255.663894 l
227.912649 255.552 l
228.68887 255.807663 l
228.785898 255.664473 l
228.979953 255.871159 l
229.368064 255.997651 l
229.562119 255.886492 l
230.144285 256.075181 l
230.435368 255.822699 l
230.629423 256.027131 l
231.114562 256.182999 l
231.502672 255.790914 l
231.5997 255.82214 l
231.890783 255.572426 l
231.987811 255.603711 l
232.084838 255.463603 l
232.278894 255.666162 l
232.472949 255.557429 l
233.24917 255.805872 l
233.443226 255.697655 l
233.637281 255.759429 l
233.734309 255.62065 l
233.928364 255.821045 l
234.995668 256.157146 l
235.189723 256.049648 l
235.286751 256.08 l
235.383779 255.94242 l
235.577834 256.14059 l
235.965945 256.261313 l
236.16 256.154291 l
236.645138 256.304491 l
236.839194 256.197884 l
236.936221 256.22784 l
237.130277 256.121528 l
237.42136 256.21126 l
237.80947 255.834213 l
238.003526 255.894168 l
238.294608 255.654067 l
238.391636 255.684082 l
238.585691 255.414857 l
238.779747 255.609434 l
238.973802 255.669333 l
239.167857 255.565021 l
239.944079 255.803367 l
240.235162 255.566227 l
240.429217 255.758805 l
240.526245 255.788389 l
240.7203 255.684887 l
241.787604 256.008233 l
241.884632 255.876036 l
242.078687 256.06656 l
243.437074 256.470923 l
243.534102 256.339719 l
243.728157 256.528134 l
245.086545 256.9248 l
245.183572 256.794575 l
245.377628 256.980927 l
246.347904 257.259574 l
246.638987 257.028531 l
246.736015 257.056302 l
246.833042 256.927227 l
247.027098 257.111746 l
247.221153 257.010522 l
248.094402 257.258654 l
248.288457 257.15791 l
248.385485 257.185346 l
248.482513 257.057401 l
248.676568 257.240121 l
248.870623 257.294769 l
249.064679 257.194393 l
249.452789 257.303415 l
249.646845 257.203378 l
250.034955 257.312 l
250.131983 257.185166 l
250.326038 257.366123 l
250.520093 257.42012 l
250.714149 257.320526 l
251.005232 257.401368 l
251.199287 257.302082 l
251.684425 257.43633 l
251.781453 257.310588 l
251.975508 257.489814 l
252.654702 257.676048 l
252.848757 257.577354 l
253.236868 257.683211 l
253.430923 257.433731 l
253.624979 257.61126 l
254.013089 257.716621 l
254.4012 257.370468 l
254.983366 257.528432 l
255.177421 257.431181 l
256.535808 257.796 l
256.632836 257.673423 l
256.826891 257.847652 l
257.020947 257.75102 l
257.409057 257.85408 l
257.603113 257.757762 l
258.185278 257.911646 l
258.282306 257.79009 l
258.476361 257.962714 l
258.767444 258.039104 l
258.9615 257.943273 l
259.058527 257.968705 l
259.34961 257.752242 l
259.543666 257.803176 l
259.737721 257.708024 l
259.834749 257.733474 l
260.028804 257.638554 l
261.387191 257.992278 l
261.484219 257.872791 l
261.678274 258.042371 l
262.26044 258.192 l
262.454495 258.097816 l
262.551523 258.122684 l
262.745578 258.028727 l
262.939634 258.07843 l
263.133689 257.841422 l
263.327744 258.009559 l
263.5218 258.059148 l
263.812883 257.847652 l
264.103966 257.922058 l
264.395049 257.711461 l
264.686132 257.785846 l
264.783159 257.66851 l
264.977215 257.835304 l
265.268298 257.909294 l
265.462353 257.816864 l
265.656408 257.866105 l
265.850464 257.773918 l
266.335602 257.896678 l
266.432629 257.780277 l
266.626685 257.9456 l
266.723712 257.970022 l
267.111823 257.646168 l
267.208851 257.670684 l
267.402906 257.579431 l
267.693989 257.65289 l
267.888044 257.561896 l
267.985072 257.586353 l
268.0821 257.471093 l
268.276155 257.63519 l
268.373183 257.65957 l
268.567238 257.568855 l
268.858321 257.641908 l
269.052376 257.551448 l
269.537515 257.672805 l
269.73157 257.444115 l
269.925625 257.60686 l
270.11968 257.655218 l
270.410763 257.451375 l
271.284012 257.668364 l
271.38104 257.554965 l
271.575095 257.71631 l
272.157261 257.859556 l
272.351317 257.77036 l
272.933483 257.912852 l
273.03051 257.800258 l
273.224566 257.960156 l
273.418621 258.007362 l
273.612676 257.918562 l
274.29187 258.083176 l
274.67998 257.771263 l
274.874036 257.929876 l
275.844312 258.1632 l
276.135395 257.964345 l
276.232423 257.987613 l
276.329451 257.876796 l
276.523506 258.034079 l
276.717561 257.946592 l
277.299727 258.085553 l
277.493783 257.998365 l
277.881893 258.090624 l
277.978921 257.980642 l
278.172976 258.136615 l
278.561087 257.830349 l
278.949197 257.922484 l
279.24028 257.726951 l
279.337308 257.74999 l
279.628391 257.555102 l
279.822446 257.71005 l
280.016502 257.756008 l
280.210557 257.670267 l
280.307585 257.693232 l
280.50164 257.60768 l
280.598668 257.630642 l
280.792723 257.545278 l
280.986778 257.591172 l
281.277861 257.398052 l
281.471917 257.551858 l
281.568944 257.574746 l
281.763 257.489814 l
281.860027 257.512699 l
282.054082 257.427953 l
282.733276 257.58765 l
282.927331 257.373329 l
283.121387 257.525947 l
284.091663 257.752171 l
284.285719 257.668097 l
284.479774 257.713116 l
284.576802 257.606725 l
284.673829 257.735593 l
284.867885 257.651739 l
286.032216 257.92 l
286.226272 257.708655 l
286.420327 257.858767 l
286.71141 257.925341 l
286.905465 257.842108 l
287.196548 257.908547 l
287.390604 257.82553 l
287.681687 257.891834 l
287.875742 257.682129 l
288.069797 257.831108 l
289.331157 258.116214 l
289.62224 257.929748 l
290.980627 258.233684 l
291.077655 258.130247 l
291.174682 258.255241 l
291.368738 258.173417 l
291.853876 258.280989 l
292.047931 258.199409 l
292.630097 258.32794 l
292.727125 258.225231 l
292.92118 258.370624 l
293.212263 258.434502 l
293.406319 258.353272 l
293.891457 258.459429 l
294.085512 258.378439 l
294.279567 258.4208 l
294.376595 258.318808 l
294.57065 258.463082 l
294.764706 258.382314 l
295.929038 258.634588 l
296.026065 258.533248 l
296.220121 258.676364 l
296.899314 258.821975 l
297.09337 258.741728 l
297.578508 258.845255 l
297.675536 258.744558 l
297.869591 258.886534 l
298.451757 259.00992 l
298.645812 258.930049 l
298.936895 258.991543 l
299.325006 258.711873 l
299.519061 258.852836 l
299.810144 258.673714 l
300.683393 258.857822 l
300.974476 258.560058 l
301.168531 258.700075 l
301.265559 258.720474 l
301.459614 258.64183 l
301.65367 258.682607 l
301.944752 258.505397 l
302.526918 258.6276 l
302.623946 258.529157 l
302.818001 258.668189 l
303.109084 258.728937 l
303.594223 258.356736 l
303.69125 258.37707 l
303.885306 258.299569 l
304.176389 258.360511 l
304.273416 258.262883 l
304.467472 258.401049 l
304.758555 258.226328 l
304.855582 258.246621 l
305.146665 258.072413 l
305.825859 258.21431 l
305.922886 258.117434 l
306.116942 258.254691 l
307.087218 258.455538 l
307.378301 258.282732 l
307.475329 258.302769 l
307.572357 258.206532 l
307.766412 258.342791 l
308.833716 258.561669 l
309.027772 258.48569 l
309.124799 258.5055 l
309.221827 258.409843 l
309.415882 258.545069 l
309.609938 258.584568 l
309.90102 258.41339 l
310.192103 258.472657 l
310.386159 258.397181 l
310.774269 258.476028 l
310.871297 258.381043 l
311.065352 258.515349 l
311.259408 258.554602 l
311.453463 258.479381 l
312.42374 258.674795 l
312.520767 258.580375 l
312.714823 258.713677 l
312.908878 258.752492 l
313.102933 258.677616 l
313.394016 258.735761 l
313.588072 258.661058 l
314.07321 258.757714 l
314.170237 258.663901 l
314.364293 258.796262 l
315.237542 258.856301 l
316.401874 259.066069 l
316.692957 258.899036 l
318.148371 259.163864 l
318.342427 259.09024 l
320.477035 259.482035 l
320.768118 259.317249 l
321.641367 259.373797 l
321.835422 259.301061 l
322.223533 259.265368 l
322.320561 259.174432 l
322.514616 259.302232 l
323.873003 259.449882 l
323.970031 259.359464 l
324.164086 259.486354 l
325.522474 259.632 l
325.619501 259.542095 l
325.813556 259.668088 l
327.171944 259.811768 l
327.365999 259.740261 l
328.045193 259.758181 l
328.433303 259.509141 l
329.500608 259.687402 l
329.694663 259.616651 l
330.567912 259.758351 l
330.858995 259.59972 l
331.05305 259.529404 l
331.247105 259.4592 l
332.508465 259.6709 l
332.799548 259.513562 l
333.672797 259.566792 l
333.866852 259.497276 l
334.546046 259.515412 l
334.740101 259.446181 l
335.225239 259.4295 l
335.322267 259.343044 l
335.516322 259.464393 l
336.87471 259.603826 l
336.971737 259.517839 l
337.068765 259.621104 l
337.359848 259.466567 l
338.52418 259.570667 l
338.621207 259.485223 l
338.815263 259.605021 l
339.397429 259.605415 l
339.591484 259.537365 l
339.882567 259.486563 l
340.076622 259.418734 l
340.270678 259.35101 l
340.464733 259.283389 l
341.726092 259.404146 l
341.82312 259.319808 l
342.017175 259.438209 l
343.375563 259.5744 l
343.47259 259.490508 l
343.666646 259.608127 l
344.636922 259.675656 l
344.928005 259.525424 l
345.219088 259.558997 l
345.413144 259.492441 l
346.092337 259.509821 l
346.286392 259.443526 l
347.450724 259.54431 l
347.838835 259.313311 l
348.518029 259.41327 l
348.712084 259.347637 l
349.29425 259.34859 l
349.488305 259.2832 l
349.68236 259.217907 l
349.973443 259.070959 l
350.070471 259.169337 l
350.264526 259.104248 l
351.331831 259.188556 l
351.622914 259.042505 l
351.816969 259.156832 l
352.302107 259.141703 l
352.59319 258.996185 l
353.175356 258.997895 l
353.272384 258.917156 l
353.466439 259.03086 l
353.660494 258.966657 l
355.601048 259.277663 l
355.892131 259.133683 l
356.183214 259.086258 l
356.571324 258.863012 l
356.76538 258.975422 l
358.026739 259.090719 l
358.220794 258.931958 l
358.41485 259.043698 l
358.705933 258.996779 l
358.899988 258.933773 l
360.355403 259.064471 l
360.646486 258.923077 l
360.937569 258.876653 l
361.228652 258.735761 l
362.97515 258.91434 l
363.169205 258.758393 l
363.36326 258.868302 l
365.885979 259.170988 l
366.856256 259.21928 l
367.050311 259.157854 l
369.087892 259.376985 l
369.281948 259.315917 l
371.222501 259.516988 l
371.416556 259.36491 l
371.707639 259.486913 l
372.968999 259.59423 l
373.066026 259.51858 l
373.357109 259.639812 l
373.551164 259.579418 l
374.424413 259.625245 l
374.715496 259.489858 l
375.006579 259.610451 l
376.267939 259.716065 l
376.364967 259.641191 l
376.65605 259.761031 l
376.850105 259.701207 l
377.141188 259.656453 l
377.335243 259.5968 l
377.917409 259.597161 l
378.014437 259.52273 l
378.111464 259.61212 l
378.30552 259.552677 l
379.566879 259.657412 l
379.663907 259.583359 l
379.95499 259.701957 l
383.059875 260.142545 l
383.350958 260.010357 l
385.194484 260.183701 l
385.388539 260.125228 l
386.16476 260.15334 l
386.261788 260.080675 l
386.552871 260.196467 l
386.940981 260.166958 l
387.135037 260.108821 l
389.172618 260.307936 l
389.366673 260.250122 l
389.754783 260.220811 l
389.948839 260.163166 l
390.822088 260.204936 l
391.113171 260.075965 l
391.210198 260.16167 l
391.404254 260.104322 l
392.665613 260.202462 l
392.762641 260.131271 l
393.053724 260.244657 l
393.63589 260.243758 l
393.829945 260.186798 l
395.964554 260.395127 l
396.061581 260.324598 l
396.158609 260.408997 l
396.352664 260.352365 l
398.293217 260.530571 l
398.487273 260.474237 l
398.487273 260.474237 l
stroke
grestore
1.000 setlinewidth
0 setlinecap
gsave
357.1 266.1 57.6 38.02 clipbox
/o {
gsave
newpath
translate
1.0 setlinewidth
1 setlinejoin
0 setlinecap
0 -3 m
0.795609 -3 1.55874 -2.683901 2.12132 -2.12132 c
2.683901 -1.55874 3 -0.795609 3 0 c
3 0.795609 2.683901 1.55874 2.12132 2.12132 c
1.55874 2.683901 0.795609 3 0 3 c
-0.795609 3 -1.55874 2.683901 -2.12132 2.12132 c
-2.683901 1.55874 -3 0.795609 -3 0 c
-3 -0.795609 -2.683901 -1.55874 -2.12132 -2.12132 c
-1.55874 -2.683901 -0.795609 -3 0 -3 c
cl

gsave
0.860 0.371 0.340 setrgbcolor
fill
grestore
stroke
grestore
} bind def
73.8327 171.072 o
74.0268 171.072 o
74.2208 204.336 o
74.6089 215.424 o
75.0941 210.206 o
75.6763 219.456 o
76.4525 206.554 o
77.6168 213.26 o
79.4603 215.424 o
82.0801 228.99 o
86.5434 238.116 o
93.6264 251.446 o
104.008 253.398 o
120.115 256.483 o
142.819 260.753 o
168.144 257.673 o
198.513 257.167 o
232.085 255.464 o
269.44 257.649 o
308.057 258.403 o
348.421 259.397 o
389.464 260.264 o
grestore
3.000 setlinewidth
2 setlinecap
0.340 0.860 0.371 setrgbcolor
gsave
357.1 266.1 57.6 38.02 clipbox
73.832727 38.016 m
74.026783 38.016 l
74.12381 64.6272 l
74.220838 62.208 l
74.414893 58.486154 l
74.608949 91.2384 l
74.803004 84.976941 l
75.191114 126.72 l
75.38517 119.006609 l
75.579225 133.81632 l
75.870308 123.552 l
75.967336 129.778759 l
76.355446 118.656 l
76.452474 126.72 l
76.549502 124.111059 l
76.743557 134.112 l
77.03464 126.72 l
77.228695 135.374049 l
77.616806 126.72 l
77.810861 134.269277 l
78.004917 130.340571 l
78.296 142.373647 l
78.587083 136.576 l
78.68411 139.6224 l
79.266276 129.628328 l
79.557359 137.808 l
79.654387 136.272738 l
79.751414 140.366769 l
79.848442 138.816 l
80.33358 150.45769 l
80.430608 148.896 l
80.527636 151.022466 l
80.624663 149.495351 l
80.721691 151.55712 l
81.012774 147.190154 l
81.206829 151.1136 l
81.303857 149.717333 l
81.400885 151.60039 l
81.497912 150.231904 l
81.59494 152.064 l
81.983051 146.88 l
82.177106 150.3744 l
82.274134 149.139692 l
82.662244 155.665516 l
82.8563 153.239753 l
82.953327 155.983175 l
83.050355 154.779429 l
83.24441 157.7664 l
83.438465 155.418353 l
83.535493 156.862136 l
83.632521 155.719385 l
83.826576 158.519547 l
83.923604 157.393346 l
84.020631 158.752 l
84.117659 157.64433 l
84.311714 160.283676 l
84.50577 158.119646 l
84.602797 159.400421 l
84.699825 158.344904 l
84.990908 162.051254 l
85.087936 161.008941 l
85.184963 162.2016 l
85.379019 160.16577 l
85.961185 166.914 l
86.15524 164.930954 l
86.349295 167.04 l
86.446323 166.069895 l
86.737406 169.115294 l
86.931461 167.215304 l
87.222544 170.12834 l
87.319572 169.197972 l
87.416599 170.141538 l
87.610655 168.319117 l
87.80471 170.166857 l
87.998765 168.39302 l
88.095793 169.29792 l
88.483904 165.888 l
88.580931 166.779871 l
88.677959 165.954462 l
89.06607 169.4088 l
89.163097 168.592696 l
89.357153 171.072 l
89.551208 169.449366 l
90.036346 173.433941 l
90.230402 171.850105 l
90.327429 172.619163 l
90.424457 171.84111 l
90.521485 172.601379 l
90.909595 169.576989 l
91.006623 170.32867 l
91.200678 168.866652 l
91.588789 171.791222 l
91.685816 171.072 l
91.976899 173.184 l
92.073927 172.472589 l
92.170955 173.161885 l
92.559065 170.389662 l
92.753121 171.747411 l
92.947176 170.403377 l
93.044204 171.072 l
93.141231 170.41003 l
93.335287 171.727448 l
93.723397 169.143652 l
93.820425 169.792615 l
93.917453 169.162105 l
94.01448 169.8048 l
94.111508 169.180209 l
94.402591 171.072 l
94.499619 170.453135 l
94.693674 171.685161 l
94.790702 171.072 l
95.372867 174.636 l
95.469895 174.0288 l
95.566923 175.21152 l
95.66395 174.60446 l
95.760978 175.175048 l
95.858006 174.573474 l
96.052061 175.700035 l
96.149089 175.104 l
96.343144 176.211502 l
96.634227 174.45478 l
96.92531 176.082477 l
97.119365 174.936697 l
97.313421 176 l
97.410448 175.434492 l
97.701531 176.997571 l
98.18667 174.24 l
98.380725 175.26274 l
98.671808 173.660638 l
98.865863 174.668108 l
99.253974 172.589749 l
99.351001 173.088 l
99.448029 172.578294 l
99.545057 173.072842 l
99.739112 172.064955 l
99.933167 173.0432 l
100.22425 171.559385 l
100.515333 173.4912 l
100.612361 173.000348 l
100.806416 173.943712 l
100.903444 173.456516 l
101.291555 175.303463 l
101.388582 174.820056 l
101.679665 176.171707 l
101.873721 175.215612 l
102.067776 176.577766 l
102.164804 176.101608 l
102.649942 178.264216 l
102.843997 177.322953 l
102.941025 177.74705 l
103.038052 177.28128 l
103.13508 177.702698 l
103.232108 177.240159 l
103.426163 178.074947 l
103.523191 177.615738 l
103.620218 178.488236 l
103.717246 178.029176 l
103.911301 178.848 l
104.008329 178.392233 l
104.105357 178.797832 l
104.202384 178.345158 l
104.39644 179.148882 l
104.493467 178.699414 l
104.687523 179.493266 l
104.978606 178.162759 l
105.075633 178.5564 l
105.172661 178.118579 l
105.269689 178.947589 l
105.948882 175.939902 l
106.04591 176.329532 l
106.142938 175.9104 l
106.336993 176.682795 l
106.628076 175.441003 l
106.725104 175.824 l
106.822131 175.415074 l
106.919159 176.204724 l
107.113214 175.389451 l
107.404297 176.518737 l
107.501325 176.114939 l
107.598352 176.48707 l
107.69538 176.085704 l
107.792408 176.455769 l
107.889435 176.056807 l
107.986463 176.424828 l
108.083491 176.028241 l
108.277546 176.758154 l
108.471601 175.972079 l
108.568629 176.334102 l
108.665657 175.944473 l
108.859712 176.662588 l
108.95674 176.275307 l
109.053767 176.631443 l
109.34485 175.482696 l
109.732961 176.888656 l
110.121072 175.38733 l
110.218099 175.73434 l
110.315127 175.364129 l
110.703238 176.733957 l
110.897293 176 l
111.091348 176.674358 l
111.382431 175.588261 l
111.479459 175.923 l
111.576486 175.5648 l
111.673514 176.256 l
111.964597 175.187134 l
112.061625 175.518602 l
112.158652 175.166031 l
112.449735 176.150473 l
112.837846 174.75869 l
112.934874 175.083739 l
113.225957 174.058294 l
113.420012 175.043821 l
113.711095 174.0288 l
113.90515 174.668108 l
114.002178 174.333176 l
114.293261 175.280584 l
114.390289 174.947417 l
114.584344 175.571478 l
114.875427 174.581871 l
114.972454 174.891789 l
115.069482 174.565117 l
115.360565 175.48618 l
115.457593 175.161191 l
115.748676 176.069408 l
115.845703 175.746098 l
116.330842 177.232 l
116.427869 176.910485 l
116.718952 178.107145 l
116.81598 177.785835 l
116.913008 178.074947 l
117.107063 177.436866 l
117.495174 178.580804 l
117.592201 178.264216 l
117.689229 178.547056 l
117.786257 178.231964 l
117.883284 178.513611 l
118.174367 177.57696 l
118.271395 177.857561 l
118.368423 177.548177 l
118.950588 179.206428 l
119.047616 178.898824 l
119.532754 180.248276 l
119.629782 179.9424 l
119.823837 180.474244 l
120.11492 179.564936 l
120.211948 179.829401 l
120.308976 179.528949 l
120.406003 179.792372 l
120.503031 179.493266 l
120.600059 179.755655 l
120.794114 179.161358 l
120.988169 179.68314 l
121.182225 179.094087 l
121.37628 179.905593 l
121.473308 179.611826 l
121.570335 179.869091 l
121.764391 179.285333 l
121.861418 179.541684 l
122.346557 178.103415 l
122.540612 178.613636 l
122.831695 177.764958 l
122.928722 178.300394 l
123.122778 177.738132 l
123.219805 177.990912 l
123.316833 177.711521 l
123.510888 178.214171 l
123.898999 177.108071 l
123.996027 177.35811 l
124.093054 177.084354 l
124.28711 177.581589 l
124.481165 177.037474 l
124.578193 177.284732 l
125.063331 175.943029 l
125.257386 176.435102 l
125.451442 175.905774 l
125.548469 176.150473 l
126.033608 174.844854 l
126.130635 175.347902 l
126.324691 174.830644 l
126.421718 175.073684 l
126.615774 174.56036 l
127.003884 175.523688 l
127.100912 175.268571 l
127.197939 175.5072 l
127.294967 175.253057 l
127.391995 175.490834 l
127.683078 174.734092 l
127.974161 175.693689 l
128.265244 176.39424 l
128.362271 176.1431 l
128.459299 176.374957 l
128.653354 175.875466 l
128.84741 176.336806 l
128.944437 176.088474 l
129.041465 176.317935 l
129.332548 175.578353 l
129.526603 176.280598 l
129.720659 175.790298 l
129.914714 176.243788 l
130.108769 175.75707 l
130.205797 175.982678 l
130.49688 175.259077 l
130.88499 176.154 l
131.079046 175.676014 l
131.661212 176.995726 l
131.758239 176.758154 l
131.855267 176.975509 l
132.049322 176.502857 l
132.14635 176.719538 l
132.825544 175.09047 l
133.019599 175.522033 l
133.116627 175.292474 l
133.601765 176.358993 l
133.698793 176.130327 l
133.989876 176.761895 l
134.086903 176.534069 l
134.377986 177.38726 l
134.572042 177.80077 l
134.669069 177.573107 l
134.766097 177.778888 l
134.863124 177.552 l
134.960152 177.757147 l
135.154207 177.305641 l
135.542318 178.11991 l
135.736373 177.671578 l
136.027456 178.499368 l
136.70665 176.94829 l
136.803678 177.148573 l
136.900705 176.929811 l
136.997733 177.129495 l
137.385844 176.261392 l
137.482871 176.460561 l
137.676927 176.030609 l
138.162065 177.017492 l
138.453148 176.377914 l
138.550176 176.57355 l
138.647203 176.361688 l
138.841258 176.75122 l
138.938286 176.540055 l
139.035314 176.945096 l
139.132341 176.733957 l
139.229369 176.927272 l
139.423424 176.506965 l
139.520452 176.699746 l
139.61748 176.49057 l
140.00559 177.256012 l
140.102618 177.047569 l
140.296673 177.426913 l
140.587756 176.805468 l
140.684784 177.20088 l
140.781812 176.994374 l
141.072895 177.557743 l
141.169922 177.351929 l
141.26695 177.538639 l
141.363978 177.333459 l
141.461005 177.519648 l
141.558033 177.315097 l
141.655061 177.500767 l
141.752088 177.296842 l
141.946144 177.666612 l
142.237227 177.058554 l
142.334254 177.444784 l
142.625337 176.840324 l
142.722365 177.024 l
142.819392 176.8237 l
143.110475 177.371638 l
143.401558 176.7744 l
143.595614 177.137231 l
143.692641 176.939334 l
143.789669 177.12 l
143.886697 176.922689 l
143.983724 177.102867 l
144.080752 176.906139 l
144.17778 177.085831 l
144.274807 176.889681 l
144.371835 177.06889 l
144.56589 176.678292 l
144.662918 176.857043 l
144.759946 176.662588 l
144.856973 176.840862 l
144.954001 176.646972 l
145.051029 176.82477 l
145.148056 176.631443 l
145.245084 176.808768 l
145.633195 176.040896 l
145.730222 176.217812 l
145.82725 176.027189 l
146.312388 176.904592 l
146.603471 176.336153 l
146.894554 176.857043 l
146.991582 176.668657 l
147.088609 177.029731 l
147.282665 176.65351 l
147.379692 176.825773 l
147.47672 176.638445 l
147.573748 176.810264 l
147.670775 176.623462 l
147.864831 176.965756 l
147.961858 176.779496 l
148.252941 177.28957 l
148.446997 176.918668 l
148.544024 177.08783 l
148.641052 176.903139 l
148.932135 177.408 l
149.029163 177.223863 l
149.223218 177.558261 l
149.320246 177.374653 l
149.514301 177.707339 l
149.611329 177.524257 l
150.096467 178.3485 l
150.290522 177.984 l
150.484578 178.310798 l
150.678633 177.948279 l
150.969716 178.435459 l
151.260799 177.895385 l
151.357826 178.057014 l
151.454854 177.877934 l
151.648909 178.2 l
151.745937 178.021422 l
151.842965 178.181863 l
152.425131 177.12 l
152.522158 177.280161 l
152.716214 176.929811 l
152.813241 177.089608 l
152.910269 176.915112 l
153.104324 177.233542 l
153.29838 176.885933 l
153.492435 177.376399 l
153.68649 177.029731 l
153.977573 177.502216 l
154.074601 177.329584 l
154.656767 178.264216 l
154.94785 177.749229 l
155.33596 178.36496 l
155.432988 178.194219 l
155.918126 178.955608 l
156.112182 178.615585 l
156.209209 178.766805 l
156.306237 178.59743 l
156.403265 178.748308 l
156.59732 178.41082 l
156.888403 178.861419 l
156.985431 178.693346 l
157.276514 179.140794 l
157.470569 178.805979 l
157.567597 178.954464 l
158.052735 178.124438 l
158.24679 178.585751 l
158.537873 178.091367 l
158.731928 178.386189 l
158.925984 178.058604 l
159.023011 178.205538 l
159.217067 177.879516 l
159.314094 178.026146 l
159.702205 177.378701 l
159.799233 177.686345 l
159.89626 177.525062 l
159.993288 177.671087 l
160.090316 177.510194 l
160.284371 177.801269 l
160.478426 177.480661 l
160.672482 177.770471 l
160.866537 177.451397 l
161.060592 177.739954 l
161.351675 177.264163 l
161.545731 177.551511 l
161.642758 177.393665 l
162.030869 177.964541 l
162.516007 177.180954 l
162.613035 177.322953 l
162.710062 177.167303 l
162.80709 177.309 l
162.904118 177.153712 l
163.195201 177.7322 l
163.292228 177.87264 l
163.389256 177.717416 l
163.486284 177.857561 l
163.583311 177.702698 l
163.680339 177.842549 l
163.777367 177.688044 l
164.06845 178.105797 l
164.165477 177.951683 l
164.262505 178.090338 l
164.359533 177.93658 l
164.45656 178.074947 l
164.553588 177.921542 l
164.747643 178.350775 l
164.844671 178.197403 l
165.135754 178.608941 l
165.523865 177.998993 l
165.911975 178.543827 l
166.203058 178.090024 l
166.300086 178.376474 l
166.397114 178.225548 l
166.494141 178.360782 l
166.591169 178.210197 l
166.785224 178.479829 l
167.076307 178.030105 l
167.464418 178.566121 l
167.561445 178.416917 l
167.755501 178.683254 l
167.852528 178.5344 l
168.046584 178.948465 l
168.240639 178.651139 l
168.434694 178.915301 l
168.531722 178.767142 l
168.919833 179.292214 l
169.210916 178.849804 l
169.307943 178.980438 l
169.599026 178.54084 l
169.696054 178.671252 l
169.987137 178.234435 l
170.181192 178.494545 l
170.472275 178.060523 l
170.66633 178.319655 l
170.763358 178.175606 l
170.957413 178.433705 l
171.054441 178.289982 l
171.151469 178.562358 l
171.345524 178.275236 l
171.442552 178.403657 l
171.636607 178.117735 l
171.830662 178.373854 l
172.024718 178.089152 l
172.121745 178.216851 l
172.218773 178.074947 l
172.412828 178.3296 l
172.509856 178.188012 l
172.606884 178.314968 l
172.703911 178.17368 l
173.092022 178.679013 l
173.18905 178.538068 l
173.286077 178.663784 l
173.480133 178.382769 l
173.965271 179.007746 l
174.062299 178.867734 l
174.159326 178.992 l
174.256354 178.852281 l
174.353382 179.11602 l
174.644464 178.697739 l
174.741492 178.82156 l
174.83852 178.682698 l
175.032575 178.929638 l
175.323658 178.514779 l
175.614741 178.883507 l
176.196907 178.061323 l
176.293935 178.183837 l
176.682045 177.641076 l
176.973128 178.007351 l
177.070156 177.872355 l
177.167184 177.993988 l
177.458267 177.590594 l
177.74935 178.088376 l
177.846377 177.954207 l
178.428543 178.6752 l
178.622598 178.407787 l
178.719626 178.527179 l
178.816654 178.393867 l
179.010709 178.632 l
179.107737 178.498967 l
179.495847 178.972592 l
179.592875 178.839864 l
179.689903 178.957727 l
179.78693 178.825263 l
179.980986 179.060353 l
180.272069 178.664531 l
180.563152 179.015642 l
180.660179 178.884235 l
180.854235 179.248626 l
181.04829 178.986112 l
181.533428 179.564936 l
181.824511 179.173196 l
182.212622 179.632588 l
182.30965 179.502545 l
182.406677 179.746909 l
182.600732 179.487091 l
182.891815 179.828885 l
182.988843 179.699375 l
183.085871 179.812905 l
183.182898 179.683646 l
183.376954 179.910115 l
183.668037 179.523833 l
183.765064 179.636801 l
183.95912 179.380474 l
184.056147 179.6213 l
184.153175 179.493266 l
184.250203 179.605854 l
184.34723 179.478065 l
184.541286 179.702659 l
184.832369 179.320755 l
185.123452 179.656258 l
185.220479 179.529454 l
185.317507 179.640902 l
185.414535 179.514338 l
185.511562 179.6256 l
185.60859 179.499276 l
185.705618 179.736664 l
185.899673 179.484267 l
186.190756 179.816355 l
186.287784 179.690534 l
186.384811 179.800851 l
186.481839 179.675267 l
187.161032 180.442141 l
187.452115 180.067006 l
187.549143 180.175832 l
187.646171 180.051239 l
187.743198 180.159888 l
188.131309 179.663749 l
188.228337 179.772262 l
188.422392 179.525514 l
188.713475 179.85 l
188.810503 179.726987 l
189.004558 180.065386 l
189.101586 179.9424 l
189.489696 180.370996 l
189.877807 179.881383 l
189.974835 179.988124 l
190.265918 179.623157 l
190.362945 179.729753 l
190.557 179.487508 l
190.751056 179.700205 l
190.848083 179.579417 l
190.945111 179.685506 l
191.042139 179.564936 l
191.139166 179.670857 l
191.236194 179.550505 l
191.333222 179.656258 l
191.430249 179.536122 l
191.915388 180.06227 l
192.012415 179.9424 l
192.206471 180.271487 l
192.691609 179.674277 l
192.982692 179.986975 l
193.07972 179.868171 l
193.564858 180.38592 l
193.661886 180.267377 l
193.855941 180.591814 l
194.049996 180.354977 l
194.244052 180.560239 l
194.438107 180.324238 l
194.535134 180.42664 l
194.632162 180.308945 l
194.826217 180.513267 l
194.923245 180.395792 l
195.214328 180.701053 l
195.311356 180.583809 l
195.408383 180.802472 l
195.505411 180.685241 l
195.602439 180.786507 l
195.796494 180.552649 l
195.990549 180.754734 l
196.087577 180.638118 l
196.184605 180.738926 l
196.475688 180.390254 l
196.863798 180.792 l
196.960826 180.676204 l
197.154881 180.991896 l
197.348937 180.760544 l
197.542992 180.959845 l
197.737047 180.72929 l
197.834075 180.828725 l
198.02813 180.598938 l
198.125158 180.698238 l
198.222186 180.583634 l
198.416241 180.78178 l
198.610296 180.553172 l
198.707324 180.766232 l
198.901379 180.538014 l
198.998407 180.636728 l
199.095434 180.522905 l
199.483545 180.916239 l
199.580573 180.802645 l
199.6776 180.9006 l
199.774628 180.7872 l
200.162739 181.177519 l
200.259766 181.064348 l
200.356794 181.274713 l
200.453822 181.161555 l
200.647877 181.355508 l
200.744905 181.242553 l
200.841932 181.339313 l
201.035988 181.113962 l
201.327071 181.403407 l
201.424098 181.291034 l
201.521126 181.387226 l
201.618154 181.275042 l
201.715181 181.371096 l
202.006264 181.035632 l
202.20032 181.227364 l
202.297347 181.115916 l
202.491402 181.307077 l
202.782485 180.973842 l
202.976541 181.164483 l
203.267624 180.832865 l
203.364651 180.928 l
203.461679 180.817813 l
203.752762 181.102375 l
203.84979 180.992394 l
204.043845 181.181397 l
204.2379 180.961986 l
204.334928 181.056294 l
204.431956 180.946852 l
204.626011 181.135059 l
204.723039 181.025808 l
204.917094 181.213463 l
205.014122 181.104402 l
205.305205 181.384851 l
205.49926 181.167296 l
205.790343 181.44654 l
205.887371 181.338045 l
206.469536 181.892819 l
206.566564 181.78456 l
206.663592 181.876547 l
206.760619 181.768463 l
206.857647 181.860324 l
207.051702 181.644666 l
207.14873 181.736413 l
207.245758 181.628838 l
207.342785 181.720461 l
207.439813 181.613058 l
207.633868 181.795916 l
207.730896 181.688698 l
208.021979 181.962 l
208.119007 181.854977 l
208.216034 182.05283 l
208.313062 181.945819 l
208.507117 182.127098 l
209.186311 181.382613 l
209.283339 181.473133 l
209.477394 181.261856 l
209.671449 181.442541 l
209.768477 181.337158 l
209.865505 181.427313 l
209.962532 181.322095 l
210.05956 181.412129 l
210.156588 181.307077 l
210.253615 181.39699 l
210.350643 181.292102 l
210.44767 181.381895 l
210.544698 181.277172 l
211.223892 181.90214 l
211.320919 181.797647 l
211.417947 181.886421 l
211.514975 181.782091 l
212.194168 182.4 l
212.291196 182.295902 l
212.388224 182.383677 l
212.485251 182.279741 l
212.679307 182.454936 l
212.873362 182.247558 l
213.164445 182.509479 l
213.3585 182.302764 l
213.552556 182.4768 l
213.649583 182.373687 l
213.746611 182.460531 l
213.940666 182.254769 l
214.037694 182.341512 l
214.134722 182.238862 l
214.231749 182.325493 l
214.425804 182.120653 l
214.910943 182.552079 l
215.202026 182.246075 l
215.299053 182.332028 l
215.396081 182.230326 l
215.493109 182.316169 l
215.590136 182.214621 l
215.784192 182.385968 l
215.978247 182.183343 l
216.172302 182.455473 l
216.366358 182.253176 l
216.657441 182.508679 l
216.948524 182.206393 l
217.045551 182.291356 l
217.627717 181.690626 l
217.9188 182.04474 l
218.112856 182.213713 l
218.597994 181.71648 l
218.792049 181.885091 l
218.889077 181.786076 l
219.083132 181.954243 l
219.277187 181.756662 l
219.471243 181.924408 l
219.56827 181.825841 l
219.762326 181.993149 l
219.859353 181.894737 l
219.956381 181.97823 l
220.053409 181.879962 l
220.344492 182.129787 l
220.441519 182.031684 l
220.538547 182.114743 l
220.635575 182.016783 l
220.732602 182.099739 l
220.926658 181.904239 l
221.120713 182.069854 l
221.217741 181.972322 l
221.411796 182.137509 l
221.605851 181.942882 l
221.799907 182.107663 l
222.188017 181.720059 l
222.285045 181.802323 l
222.382072 181.705757 l
222.4791 181.884475 l
222.673155 181.691493 l
222.770183 181.773555 l
223.158294 181.389176 l
223.546404 181.71648 l
223.643432 181.620744 l
223.934515 181.865106 l
224.031543 181.769526 l
224.225598 182.027474 l
224.419653 181.836477 l
224.516681 181.917519 l
224.904792 181.537079 l
225.001819 181.61805 l
225.098847 181.523263 l
225.195875 181.604137 l
225.38993 181.414957 l
225.583985 181.576421 l
225.681013 181.482036 l
225.875068 181.737461 l
226.263179 181.360734 l
226.748317 181.761672 l
226.845345 181.667843 l
226.942372 181.747726 l
227.0394 181.654029 l
227.233455 181.8135 l
227.330483 181.719943 l
227.427511 181.799532 l
227.621566 181.6128 l
227.912649 181.851002 l
228.009677 181.757845 l
228.30076 181.995149 l
228.397787 181.90214 l
228.68887 182.138553 l
228.882926 181.952948 l
229.076981 182.202811 l
229.174009 182.110086 l
229.368064 182.266821 l
229.465092 182.174234 l
229.659147 182.330585 l
229.756175 182.238135 l
229.853202 182.316169 l
229.95023 182.223846 l
230.144285 182.379635 l
230.241313 182.287448 l
230.435368 182.442857 l
230.532396 182.350807 l
230.629423 182.428372 l
230.726451 182.336448 l
231.017534 182.568579 l
231.114562 182.4768 l
231.211589 182.55399 l
231.308617 182.462336 l
231.405645 182.539437 l
231.502672 182.447909 l
231.696728 182.601837 l
232.084838 182.236951 l
232.375921 182.558246 l
232.667004 182.787623 l
232.86106 182.605749 l
232.958087 182.682034 l
233.055115 182.591277 l
233.152143 182.667476 l
233.24917 182.576842 l
233.540253 182.804893 l
233.734309 182.62402 l
233.831336 182.699865 l
234.025392 182.519461 l
234.316474 182.746484 l
234.51053 182.566583 l
234.607557 182.642087 l
234.704585 182.552313 l
234.801613 182.627732 l
234.89864 182.538078 l
235.092696 182.688654 l
235.286751 182.509714 l
235.383779 182.674286 l
235.674862 182.4064 l
235.771889 182.48149 l
235.868917 182.392424 l
236.451083 182.841081 l
236.936221 182.397648 l
237.033249 182.560607 l
237.130277 182.472147 l
237.324332 182.62087 l
237.42136 182.532535 l
237.518387 182.606769 l
238.003526 182.166749 l
238.100553 182.240934 l
238.197581 182.15326 l
238.294608 182.227363 l
238.585691 181.965002 l
238.682719 182.12638 l
238.876774 181.951806 l
239.07083 182.09963 l
239.167857 182.012518 l
239.361913 182.16 l
239.45894 182.073009 l
239.555968 182.146625 l
239.652996 182.059747 l
239.750023 182.133282 l
239.944079 181.959856 l
240.041106 182.033318 l
240.235162 181.860324 l
240.332189 182.020151 l
240.7203 181.675025 l
240.914355 181.821587 l
241.108411 181.649674 l
241.399494 181.868907 l
241.496521 181.783127 l
241.787604 182.0016 l
241.884632 181.915945 l
242.078687 182.146816 l
242.272742 181.975639 l
242.36977 182.048133 l
242.466798 181.962705 l
242.563825 182.03512 l
243.048964 181.609532 l
243.145991 181.6819 l
243.340047 181.512382 l
243.437074 181.584679 l
243.534102 181.500078 l
243.63113 181.656891 l
243.728157 181.572297 l
243.922213 181.71648 l
244.116268 181.547619 l
244.213296 181.619598 l
244.310323 181.535324 l
244.504379 181.679043 l
244.601406 181.594882 l
244.795462 181.73828 l
244.892489 181.654232 l
245.086545 181.797308 l
245.183572 181.713373 l
245.474655 181.927385 l
246.056821 181.425951 l
246.153849 181.497165 l
246.250876 181.41394 l
246.347904 181.485078 l
246.444932 181.401956 l
246.638987 181.544 l
246.736015 181.460988 l
246.833042 181.531894 l
246.93007 181.448984 l
247.027098 181.519815 l
247.124125 181.437009 l
247.221153 181.507765 l
247.415208 181.342452 l
247.803319 181.624717 l
248.288457 181.213231 l
248.385485 181.365731 l
248.870623 180.95616 l
249.161706 181.16695 l
249.258734 181.085336 l
249.355762 181.155446 l
249.549817 180.99251 l
249.646845 181.062553 l
249.743872 180.98123 l
249.8409 181.0512 l
249.937928 180.969976 l
250.131983 181.190901 l
250.326038 181.028571 l
250.423066 181.098316 l
250.617121 180.936367 l
250.714149 181.006045 l
251.587398 180.281841 l
251.878481 180.490571 l
251.975508 180.410574 l
252.266591 180.618619 l
252.654702 180.299597 l
252.848757 180.437953 l
252.945785 180.358432 l
253.042813 180.4275 l
253.13984 180.348074 l
253.236868 180.496491 l
253.527951 180.258494 l
253.624979 180.327426 l
254.013089 180.011354 l
254.207144 180.149032 l
254.4012 179.991543 l
254.692283 180.197522 l
255.177421 179.805405 l
255.662559 180.147327 l
255.759587 180.06919 l
255.953642 180.205443 l
256.147698 180.049448 l
256.244725 180.117474 l
256.341753 180.03961 l
256.632836 180.321103 l
256.729864 180.388832 l
256.826891 180.31099 l
256.923919 180.378649 l
257.31203 180.068153 l
257.797168 180.405455 l
257.991223 180.250768 l
258.282306 180.529589 l
258.379334 180.596616 l
258.670417 180.365029 l
258.864472 180.498899 l
258.9615 180.421881 l
259.058527 180.488713 l
259.252583 180.334938 l
259.543666 180.535034 l
259.640693 180.458288 l
259.834749 180.668073 l
259.931776 180.591337 l
260.028804 180.657755 l
260.222859 180.504541 l
260.513942 180.703399 l
260.707998 180.550547 l
260.805025 180.616702 l
260.902053 180.540404 l
260.999081 180.606494 l
261.096108 180.530283 l
261.193136 180.596308 l
261.581247 180.292299 l
261.678274 180.358274 l
262.357468 179.829401 l
262.745578 180.092746 l
263.036661 179.867346 l
263.133689 179.933023 l
263.230717 179.858054 l
263.327744 179.923666 l
263.424772 179.848781 l
263.618827 179.979808 l
263.812883 179.830294 l
263.90991 179.895714 l
264.395049 179.523326 l
264.686132 179.793552 l
265.17127 180.118695 l
265.462353 180.035041 l
265.559381 180.099808 l
266.044519 179.868518 l
266.238574 180.071625 l
266.626685 179.914766 l
266.723712 179.979226 l
267.111823 179.822964 l
267.499934 180.079926 l
267.693989 179.933241 l
267.888044 180.134638 l
268.276155 179.978941 l
268.567238 180.170431 l
268.955349 180.01522 l
269.149404 180.14245 l
269.343459 179.996903 l
269.634542 180.26001 l
270.022653 180.512931 l
270.216708 180.503302 l
270.507791 180.692138 l
271.186985 180.320438 l
271.672123 180.633717 l
272.060234 180.48 l
272.448344 180.72929 l
272.933483 180.504326 l
273.03051 180.566448 l
273.515649 180.342568 l
273.612676 180.404585 l
273.806732 180.395243 l
273.903759 180.457141 l
274.29187 180.305542 l
274.485925 180.429055 l
274.67998 180.419731 l
275.068091 180.665794 l
275.262146 180.656262 l
275.456202 180.778815 l
275.650257 180.637255 l
275.747285 180.76919 l
276.135395 180.618324 l
276.329451 180.740429 l
277.008644 180.379366 l
277.299727 180.431079 l
278.270004 179.864247 l
278.658114 179.977067 l
278.949197 179.89913 l
279.143253 179.890526 l
279.725419 179.606204 l
279.919474 179.597918 l
280.889751 179.042504 l
281.860027 179.515938 l
281.957055 179.447942 l
282.054082 179.575819 l
282.248138 179.567654 l
282.539221 179.619221 l
282.830304 179.543253 l
283.218414 179.654207 l
283.80058 179.376114 l
284.091663 179.427562 l
284.382746 179.352445 l
284.673829 179.40378 l
285.255995 179.128371 l
285.838161 179.356619 l
286.032216 179.348811 l
286.226272 179.341017 l
286.71141 179.134106 l
287.002493 179.376293 l
287.196548 179.368506 l
287.584659 179.228451 l
287.778714 179.220825 l
288.166825 179.081437 l
288.457908 179.132242 l
288.651963 179.124737 l
289.137102 179.291437 l
289.331157 179.283809 l
289.719268 179.391852 l
290.107378 179.253437 l
290.398461 179.303535 l
290.689544 179.230805 l
290.980627 179.280796 l
291.465765 179.078585 l
291.659821 179.071236 l
291.950904 178.999259 l
292.630097 179.277829 l
292.824153 179.270339 l
293.018208 179.262862 l
293.600374 178.998483 l
293.891457 179.048109 l
294.18254 178.976914 l
294.376595 178.969751 l
294.57065 178.842133 l
294.764706 179.019236 l
295.443899 178.694062 l
295.734982 178.743697 l
295.929038 178.736792 l
296.317148 178.905859 l
296.802287 178.709295 l
296.996342 178.702452 l
297.287425 178.632677 l
297.48148 178.625917 l
297.675536 178.619169 l
297.869591 178.612434 l
298.063646 178.60571 l
298.354729 178.654889 l
298.548784 178.648142 l
298.839867 178.697155 l
299.227978 178.56562 l
299.519061 178.61459 l
300.004199 178.421536 l
300.489338 178.581333 l
300.683393 178.574717 l
300.877448 178.568113 l
300.974476 178.506277 l
301.265559 178.733686 l
301.65367 178.837006 l
301.847725 178.830197 l
302.04178 178.823401 l
302.429891 178.693485 l
302.818001 178.85781 l
303.30314 178.666918 l
303.594223 178.714903 l
304.079361 178.524985 l
304.370444 178.633968 l
305.146665 178.262661 l
305.437748 178.310798 l
305.631804 178.304552 l
306.310997 178.568919 l
306.60208 178.502103 l
306.796135 178.495725 l
307.184246 178.368987 l
307.669384 178.584144 l
307.86344 178.577723 l
308.25155 178.678444 l
308.833716 178.432545 l
309.027772 178.426286 l
309.221827 178.420037 l
309.706965 178.573674 l
309.90102 178.567319 l
310.192103 178.614091 l
310.677242 178.429677 l
310.968325 178.647943 l
311.356435 178.523136 l
312.132657 178.833135 l
312.326712 178.715049 l
312.42374 178.826626 l
312.714823 178.761166 l
313.005906 178.807167 l
313.588072 178.565767 l
313.879154 178.61184 l
313.976182 178.553283 l
314.170237 178.71635 l
314.752403 178.476279 l
314.946459 178.470134 l
315.140514 178.464 l
315.528625 178.561907 l
315.916735 178.439564 l
316.304846 178.537188 l
316.789984 178.357487 l
317.178095 178.454885 l
317.760261 178.218509 l
318.051344 178.264216 l
318.245399 178.258331 l
318.63351 178.355294 l
318.924593 178.292093 l
319.312703 178.388725 l
319.603786 178.325663 l
320.185952 178.524 l
320.28298 178.466999 l
320.574063 178.676741 l
320.865146 178.721373 l
321.059201 178.715184 l
321.54434 178.860906 l
322.029478 178.68439 l
322.223533 178.678261 l
322.417588 178.672142 l
322.708671 178.716439 l
322.902727 178.710301 l
323.19381 178.754464 l
323.775976 178.523136 l
324.067059 178.567364 l
324.746252 178.281409 l
325.134363 178.37579 l
325.328418 178.369984 l
325.716529 178.464 l
326.007612 178.402473 l
326.49275 178.545873 l
326.783833 178.484444 l
327.268971 178.62723 l
327.657082 178.510564 l
327.851137 178.504711 l
328.336276 178.333399 l
328.724386 178.42633 l
328.918442 178.420569 l
329.209525 178.464 l
329.694663 178.293704 l
329.888718 178.288069 l
330.276829 178.173158 l
330.858995 178.363448 l
331.247105 178.248866 l
331.538188 178.449669 l
331.732244 178.443952 l
332.023327 178.383901 l
332.217382 178.378246 l
332.605493 178.264216 l
333.284686 178.555119 l
333.672797 178.441255 l
333.866852 178.435591 l
334.060907 178.429935 l
334.449018 178.520687 l
334.546046 178.466833 l
334.740101 178.514979 l
334.934156 178.50928 l
335.322267 178.599633 l
335.904433 178.379423 l
336.292544 178.523136 l
336.680654 178.410577 l
337.456876 178.691058 l
337.650931 178.685284 l
337.942014 178.78028 l
338.233097 178.72121 l
338.427152 178.715429 l
339.494456 178.233087 l
339.688512 178.280451 l
339.882567 178.275032 l
340.17365 178.316882 l
340.367705 178.311445 l
340.755816 178.4003 l
341.240954 178.237319 l
341.43501 178.231964 l
341.726092 178.17428 l
342.502314 178.450245 l
342.696369 178.345794 l
342.890424 178.392553 l
343.181507 178.433806 l
343.47259 178.376261 l
343.957729 178.510525 l
344.345839 178.401148 l
344.73395 178.6387 l
345.122061 178.725664 l
345.316116 178.720024 l
345.607199 178.760551 l
346.286392 178.496564 l
346.480448 178.491117 l
346.771531 178.434204 l
347.062614 178.474823 l
347.256669 178.469407 l
347.64478 178.555793 l
347.935863 178.499059 l
348.421001 178.630899 l
348.809112 178.523136 l
349.29425 178.654502 l
349.488305 178.649001 l
349.779388 178.688974 l
350.070471 178.632547 l
350.555609 178.763098 l
350.652637 178.712269 l
351.040748 178.944 l
351.525886 178.786086 l
351.816969 178.825623 l
352.302107 178.572823 l
352.496163 178.617889 l
352.690218 178.612476 l
353.175356 178.741895 l
353.563467 178.635784 l
353.757522 178.630379 l
354.727799 178.22453 l
355.212937 178.353672 l
355.601048 178.248903 l
355.989158 178.333029 l
356.474297 178.178988 l
356.76538 178.218471 l
357.056463 178.070004 l
357.250518 178.208384 l
357.541601 178.153937 l
358.026739 178.281931 l
358.80296 177.981575 l
358.997016 177.976729 l
359.191071 177.971891 l
359.676209 178.099442 l
359.870265 178.094529 l
360.161348 178.133631 l
360.452431 178.079833 l
360.743514 178.118868 l
361.32568 177.91911 l
361.71379 178.002 l
362.004873 177.948637 l
362.295956 177.987593 l
362.97515 177.740897 l
363.169205 177.73629 l
363.36326 177.639832 l
363.654343 177.818889 l
364.042454 177.717925 l
364.236509 177.713349 l
364.430565 177.70878 l
364.818675 177.791077 l
365.012731 177.69511 l
365.206786 177.82982 l
365.497869 177.777256 l
365.788952 177.815934 l
366.080035 177.763492 l
366.565173 177.888393 l
366.662201 177.840639 l
366.856256 177.974564 l
367.050311 177.969855 l
367.438422 178.051095 l
368.020588 177.855956 l
368.796809 178.108182 l
369.18492 178.008569 l
369.670058 178.131747 l
370.058169 178.032405 l
370.446279 178.112712 l
370.737362 178.0608 l
371.125473 178.14088 l
371.707639 177.948048 l
372.192777 178.070255 l
372.48386 178.018699 l
372.871971 178.098353 l
372.968999 178.05155 l
373.163054 178.093659 l
373.357109 178.088972 l
373.551164 178.084291 l
373.939275 178.163592 l
374.618469 177.837559 l
374.812524 177.879516 l
375.103607 177.916899 l
375.297662 177.912358 l
375.491718 177.907824 l
376.267939 177.625833 l
376.461994 177.667638 l
376.850105 177.746756 l
377.432271 177.558261 l
377.626326 177.553991 l
377.917409 177.503842 l
378.30552 177.716058 l
378.69363 177.620031 l
379.275796 177.781438 l
380.149045 177.457645 l
380.731211 177.618581 l
381.119322 177.523462 l
381.313377 177.564648 l
381.798515 177.683747 l
382.768792 177.317749 l
382.962847 177.358788 l
383.642041 177.559393 l
384.224207 177.37533 l
384.418262 177.37127 l
384.806373 177.277571 l
385.000428 177.273581 l
385.485566 177.135528 l
385.873677 177.213046 l
386.455843 177.031002 l
386.649898 177.027192 l
386.940981 176.978989 l
387.329092 177.056337 l
387.523147 176.967691 l
387.717203 177.008214 l
388.105313 177.085352 l
388.493424 176.993119 l
388.881535 177.07008 l
389.172618 177.022173 l
389.366673 177.146846 l
389.754783 177.054885 l
389.948839 177.051099 l
390.336949 176.959434 l
391.210198 177.280161 l
391.404254 177.27625 l
391.695337 177.312272 l
392.180475 177.177021 l
392.665613 177.336407 l
393.247779 177.157895 l
393.538862 177.193825 l
393.829945 177.146477 l
394.121028 177.182351 l
394.509139 177.091694 l
395.576443 177.443463 l
396.352664 177.18003 l
396.54672 177.176243 l
396.93483 177.086296 l
397.322941 177.204182 l
397.711051 177.114395 l
398.002134 177.149867 l
398.19619 177.146117 l
398.390245 177.142372 l
398.487273 177.099498 l
398.487273 177.099498 l
stroke
grestore
1.000 setlinewidth
0 setlinejoin
0 setlinecap
gsave
357.1 266.1 57.6 38.02 clipbox
/o {
gsave
newpath
translate
1.0 setlinewidth
0 setlinejoin
0 setlinecap
-0 -4.242641 m
4.242641 0 l
0 4.242641 l
-4.242641 0 l
cl

gsave
0.340 0.860 0.371 setrgbcolor
fill
grestore
stroke
grestore
} bind def
74.0268 38.016 o
74.5119 76.032 o
74.9971 108.045 o
75.7733 126.72 o
76.8406 131.515 o
78.296 142.374 o
80.2366 148.262 o
82.8563 153.24 o
86.4463 166.07 o
91.3947 170.345 o
98.2837 174.753 o
107.21 175.768 o
119.339 179.712 o
134.96 177.757 o
155.045 177.904 o
179.399 178.855 o
208.022 181.962 o
240.235 181.86 o
275.262 180.656 o
312.618 178.82 o
351.623 178.831 o
391.695 177.312 o
grestore
0.800 setlinewidth
2 setlinecap
[] 0 setdash
0.000 setgray
gsave
57.6 38.016 m
57.6 304.128 l
stroke
grestore
gsave
414.72 38.016 m
414.72 304.128 l
stroke
grestore
gsave
57.6 38.016 m
414.72 38.016 l
stroke
grestore
gsave
57.6 304.128 m
414.72 304.128 l
stroke
grestore
/DejaVuSans findfont
12.000 scalefont
setfont
gsave
78.253750 310.128000 translate
0.000000 rotate
0.000000 0.000000 m /C glyphshow
8.378906 0.000000 m /o glyphshow
15.720703 0.000000 m /m glyphshow
27.410156 0.000000 m /p glyphshow
35.027344 0.000000 m /a glyphshow
42.380859 0.000000 m /r glyphshow
47.314453 0.000000 m /i glyphshow
50.648438 0.000000 m /s glyphshow
56.900391 0.000000 m /o glyphshow
64.242188 0.000000 m /n glyphshow
71.847656 0.000000 m /space glyphshow
75.662109 0.000000 m /o glyphshow
83.003906 0.000000 m /f glyphshow
87.228516 0.000000 m /space glyphshow
91.042969 0.000000 m /m glyphshow
102.732422 0.000000 m /e glyphshow
110.115234 0.000000 m /a glyphshow
117.468750 0.000000 m /n glyphshow
125.074219 0.000000 m /space glyphshow
128.888672 0.000000 m /s glyphshow
135.140625 0.000000 m /u glyphshow
142.746094 0.000000 m /c glyphshow
149.343750 0.000000 m /c glyphshow
155.941406 0.000000 m /e glyphshow
163.324219 0.000000 m /s glyphshow
169.576172 0.000000 m /s glyphshow
175.828125 0.000000 m /f glyphshow
180.052734 0.000000 m /u glyphshow
187.658203 0.000000 m /l glyphshow
190.992188 0.000000 m /space glyphshow
194.806641 0.000000 m /c glyphshow
201.404297 0.000000 m /o glyphshow
208.746094 0.000000 m /m glyphshow
220.435547 0.000000 m /m glyphshow
232.125000 0.000000 m /u glyphshow
239.730469 0.000000 m /n glyphshow
247.335938 0.000000 m /i glyphshow
250.669922 0.000000 m /c glyphshow
257.267578 0.000000 m /a glyphshow
264.621094 0.000000 m /t glyphshow
269.326172 0.000000 m /i glyphshow
272.660156 0.000000 m /o glyphshow
280.001953 0.000000 m /n glyphshow
287.607422 0.000000 m /space glyphshow
291.421875 0.000000 m /r glyphshow
296.355469 0.000000 m /a glyphshow
303.708984 0.000000 m /t glyphshow
308.414062 0.000000 m /e glyphshow
grestore
1.000 setlinewidth
0 setlinecap
0.800 setgray
gsave
335.766875 266.78425 m
407.72 266.78425 l
409.053333 266.78425 409.72 267.450917 409.72 268.78425 c
409.72 297.128 l
409.72 298.461333 409.053333 299.128 407.72 299.128 c
335.766875 299.128 l
334.433542 299.128 333.766875 298.461333 333.766875 297.128 c
333.766875 268.78425 l
333.766875 267.450917 334.433542 266.78425 335.766875 266.78425 c
cl
gsave
1.000 setgray
fill
grestore
stroke
grestore
3.000 setlinewidth
1 setlinejoin
2 setlinecap
[] 0 setdash
0.860 0.371 0.340 setrgbcolor
gsave
337.766875 291.03425 m
357.766875 291.03425 l
stroke
grestore
1.000 setlinewidth
0 setlinecap
gsave
/o {
gsave
newpath
translate
1.0 setlinewidth
1 setlinejoin
0 setlinecap
0 -3 m
0.795609 -3 1.55874 -2.683901 2.12132 -2.12132 c
2.683901 -1.55874 3 -0.795609 3 0 c
3 0.795609 2.683901 1.55874 2.12132 2.12132 c
1.55874 2.683901 0.795609 3 0 3 c
-0.795609 3 -1.55874 2.683901 -2.12132 2.12132 c
-2.683901 1.55874 -3 0.795609 -3 0 c
-3 -0.795609 -2.683901 -1.55874 -2.12132 -2.12132 c
-1.55874 -2.683901 -0.795609 -3 0 -3 c
cl

gsave
0.860 0.371 0.340 setrgbcolor
fill
grestore
stroke
grestore
} bind def
347.767 291.034 o
grestore
0.000 setgray
/DejaVuSans findfont
10.000 scalefont
setfont
gsave
365.766875 287.534250 translate
0.000000 rotate
0.000000 0.000000 m /U glyphshow
7.319336 0.000000 m /C glyphshow
14.301758 0.000000 m /B glyphshow
grestore
3.000 setlinewidth
2 setlinecap
0.340 0.860 0.371 setrgbcolor
gsave
337.766875 276.362375 m
357.766875 276.362375 l
stroke
grestore
1.000 setlinewidth
0 setlinejoin
0 setlinecap
gsave
/o {
gsave
newpath
translate
1.0 setlinewidth
0 setlinejoin
0 setlinecap
-0 -4.242641 m
4.242641 0 l
0 4.242641 l
-4.242641 0 l
cl

gsave
0.340 0.860 0.371 setrgbcolor
fill
grestore
stroke
grestore
} bind def
347.767 276.362 o
grestore
0.000 setgray
gsave
365.766875 272.862375 translate
0.000000 rotate
0.000000 0.000000 m /U glyphshow
7.319336 0.000000 m /n glyphshow
13.657227 0.000000 m /i glyphshow
16.435547 0.000000 m /f glyphshow
19.956055 0.000000 m /o glyphshow
26.074219 0.000000 m /r glyphshow
30.185547 0.000000 m /m glyphshow
grestore

end
showpage
